WindSu.png
size:512,512
filter:Linear,Linear
scale:0.3
at1/body
bounds:96,370,106,121
dark/eye
bounds:96,481,21,10
dark/face
bounds:202,312,48,77
dark/face_ma3
bounds:237,149,48,70
ef/1
bounds:180,52,70,70
offsets:12,12,94,94
ef/2
bounds:94,219,84,84
offsets:5,5,94,94
ef/3
bounds:2,305,92,92
offsets:1,1,94,94
ef/4
bounds:2,399,92,92
offsets:1,1,94,94
ef/5
bounds:2,213,90,90
offsets:2,2,94,94
ef/6
bounds:2,33,88,88
offsets:3,3,94,94
ef/7
bounds:2,123,88,88
offsets:3,3,94,94
ef/8
bounds:92,36,86,86
offsets:4,4,94,94
ef/9
bounds:92,124,87,87
offsets:4,3,94,94
ef/fog
bounds:96,312,100,56
offsets:4,2,106,60
ma1/arm_l
bounds:250,429,49,62
ma2/arm_l
bounds:250,429,49,62
ma3/arm_l
bounds:250,429,49,62
ma1/arm_r
bounds:238,248,49,62
ma2/arm_r
bounds:238,248,49,62
ma3/arm_r
bounds:238,248,49,62
ma1/face
bounds:200,414,48,77
ma2/face
bounds:200,414,48,77
ma1/wepon
bounds:252,40,64,25
rotate:90
ma2/wepon
bounds:252,40,64,25
rotate:90
ma3/wepon
bounds:252,40,64,25
rotate:90
ma3/face
bounds:180,2,48,70
rotate:90
shadow
bounds:203,393,82,19
offsets:0,1,82,20
su1/glow
bounds:252,106,41,41
offsets:3,4,48,49
su2/manteau
bounds:181,139,54,80
su3/hat
bounds:180,221,89,56
rotate:90
