WaterAt.png
size:512,128
filter:Linear,Linear
scale:0.3
at1/arm_1_l
bounds:420,2,23,32
rotate:90
at2/arm_1_l
bounds:420,2,23,32
rotate:90
at3/arm_1_l
bounds:420,2,23,32
rotate:90
at1/arm_1_r
bounds:463,19,23,32
at2/arm_1_r
bounds:463,19,23,32
at3/arm_1_r
bounds:463,19,23,32
at1/arm_2_l
bounds:368,5,22,50
rotate:90
at2/arm_2_l
bounds:368,5,22,50
rotate:90
at3/arm_2_l
bounds:368,5,22,50
rotate:90
at1/arm_2_r
bounds:368,29,22,50
rotate:90
at2/arm_2_r
bounds:368,29,22,50
rotate:90
at3/arm_2_r
bounds:368,29,22,50
rotate:90
at1/face
bounds:175,20,69,65
rotate:90
at2/face
bounds:175,20,69,65
rotate:90
at3/face
bounds:175,20,69,65
rotate:90
at1/wepon_r
bounds:2,7,88,24
at2/wepon_r
bounds:2,7,88,24
at3/wepon_r
bounds:2,7,88,24
at2/shoulder_l
bounds:403,53,34,30
rotate:90
at3/shoulder_l
bounds:403,53,34,30
rotate:90
at2/shoulder_r
bounds:368,53,36,33
rotate:90
at3/shoulder_r
bounds:368,53,36,33
rotate:90
at3/shoulder_l_2
bounds:435,53,38,23
at3/shoulder_r_2
bounds:420,27,41,24
dark/body
bounds:280,22,43,67
rotate:180
dark/eye
bounds:139,4,40,14
offsets:1,1,43,16
dark/face
bounds:104,24,69,65
ef/fog
bounds:2,33,100,56
offsets:4,2,106,60
ef/straight_impact_0000_7
bounds:212,2,24,7
offsets:74,7,98,21
ef/straight_impact_0001_6
bounds:212,11,25,7
offsets:72,7,98,21
ef/straight_impact_0002_5
bounds:181,9,29,9
offsets:68,6,98,21
ef/straight_impact_0003_4
bounds:92,9,45,13
offsets:51,3,98,21
ef/straight_impact_0004_3
bounds:325,7,82,20
offsets:12,1,98,21
rotate:90
ef/straight_impact_0005_2
bounds:239,8,14,10
offsets:6,6,98,21
ef/straight_impact_0006_1
bounds:255,13,11,8
offsets:1,7,98,21
shadow
bounds:347,7,82,19
offsets:0,1,82,20
rotate:90
su2/body
bounds:242,22,43,67
