Dalph.png
size:1024,1024
filter:Linear,Linear
scale:0.3
e1/arm_l
bounds:955,904,63,118
e2/arm_l
bounds:955,904,63,118
e1/body
bounds:907,765,100,115
rotate:90
e2/body
bounds:907,765,100,115
rotate:90
e3/body
bounds:907,765,100,115
rotate:90
e4/body
bounds:907,765,100,115
rotate:90
e5/body
bounds:907,765,100,115
rotate:90
e6/body
bounds:907,765,100,115
rotate:90
p1/body
bounds:907,765,100,115
rotate:90
p2/body
bounds:907,765,100,115
rotate:90
p3/body
bounds:907,765,100,115
rotate:90
p4/body
bounds:907,765,100,115
rotate:90
p5/body
bounds:907,765,100,115
rotate:90
p6/body
bounds:907,765,100,115
rotate:90
e1/head
bounds:401,891,131,205
rotate:90
e2/head
bounds:401,891,131,205
rotate:90
e3/head
bounds:401,891,131,205
rotate:90
e4/head
bounds:401,891,131,205
rotate:90
e1/leg_l
bounds:732,257,54,56
e2/leg_l
bounds:732,257,54,56
e3/leg_l
bounds:732,257,54,56
e4/leg_l
bounds:732,257,54,56
e5/leg_l
bounds:732,257,54,56
e6/leg_l
bounds:732,257,54,56
p1/leg_l
bounds:732,257,54,56
p2/leg_l
bounds:732,257,54,56
p3/leg_l
bounds:732,257,54,56
p4/leg_l
bounds:732,257,54,56
p5/leg_l
bounds:732,257,54,56
p6/leg_l
bounds:732,257,54,56
e1/leg_r
bounds:719,696,55,57
e2/leg_r
bounds:719,696,55,57
e3/leg_r
bounds:719,696,55,57
e4/leg_r
bounds:719,696,55,57
e5/leg_r
bounds:719,696,55,57
e6/leg_r
bounds:719,696,55,57
p1/leg_r
bounds:719,696,55,57
p2/leg_r
bounds:719,696,55,57
p3/leg_r
bounds:719,696,55,57
p4/leg_r
bounds:719,696,55,57
p5/leg_r
bounds:719,696,55,57
p6/leg_r
bounds:719,696,55,57
e1/shield
bounds:279,667,119,163
e2/shield
bounds:279,667,119,163
e1/wepon
bounds:400,667,125,101
offsets:11,0,136,101
e2/wepon
bounds:400,667,125,101
offsets:11,0,136,101
p1/wepon
bounds:400,667,125,101
offsets:11,0,136,101
p2/wepon
bounds:400,667,125,101
offsets:11,0,136,101
e2/arm_r
bounds:389,79,63,118
rotate:90
e2/belt
bounds:2,20,92,27
e3/belt
bounds:2,20,92,27
e4/belt
bounds:2,20,92,27
e5/belt
bounds:2,20,92,27
e6/belt
bounds:2,20,92,27
p2/belt
bounds:2,20,92,27
p3/belt
bounds:2,20,92,27
p4/belt
bounds:2,20,92,27
p5/belt
bounds:2,20,92,27
p6/belt
bounds:2,20,92,27
e2/rope
bounds:669,683,78,48
rotate:90
p2/rope
bounds:669,683,78,48
rotate:90
e2/shadow_shield
bounds:380,11,38,62
offsets:0,1,38,63
p2/shadow_shield
bounds:380,11,38,62
offsets:0,1,38,63
p3/shadow_shield
bounds:380,11,38,62
offsets:0,1,38,63
p4/shadow_shield
bounds:380,11,38,62
offsets:0,1,38,63
p5/shadow_shield
bounds:380,11,38,62
offsets:0,1,38,63
p6/shadow_shield
bounds:380,11,38,62
offsets:0,1,38,63
e2/shadow_wepon
bounds:771,548,43,19
p2/shadow_wepon
bounds:771,548,43,19
e2/shield_deco
bounds:592,24,54,52
p2/shield_deco
bounds:592,24,54,52
p3/shield_deco
bounds:592,24,54,52
p4/shield_deco
bounds:592,24,54,52
p5/shield_deco
bounds:592,24,54,52
p6/shield_deco
bounds:592,24,54,52
e3/arm_l
bounds:260,10,63,118
rotate:90
e4/arm_l
bounds:260,10,63,118
rotate:90
e5/arm_l
bounds:260,10,63,118
rotate:90
e6/arm_l
bounds:260,10,63,118
rotate:90
p1/arm_l
bounds:260,10,63,118
rotate:90
p2/arm_l
bounds:260,10,63,118
rotate:90
p3/arm_l
bounds:260,10,63,118
rotate:90
p4/arm_l
bounds:260,10,63,118
rotate:90
p5/arm_l
bounds:260,10,63,118
rotate:90
p6/arm_l
bounds:260,10,63,118
rotate:90
e3/arm_r
bounds:509,78,63,118
rotate:90
e4/arm_r
bounds:509,78,63,118
rotate:90
e5/arm_r
bounds:509,78,63,118
rotate:90
e6/arm_r
bounds:509,78,63,118
rotate:90
p2/arm_r
bounds:509,78,63,118
rotate:90
p3/arm_r
bounds:509,78,63,118
rotate:90
p4/arm_r
bounds:509,78,63,118
rotate:90
p5/arm_r
bounds:509,78,63,118
rotate:90
p6/arm_r
bounds:509,78,63,118
rotate:90
e3/shield
bounds:176,483,119,163
e4/shield
bounds:176,483,119,163
e3/shoulder_l
bounds:420,20,52,57
offsets:3,0,55,57
e3/shoulder_r
bounds:474,24,52,57
offsets:0,0,55,57
rotate:90
e3/wepon
bounds:247,172,140,86
e4/wepon
bounds:247,172,140,86
e5/wepon
bounds:247,172,140,86
p3/wepon
bounds:247,172,140,86
p4/wepon
bounds:247,172,140,86
p5/wepon
bounds:247,172,140,86
e4/belt_deco
bounds:683,519,62,42
e5/belt_deco
bounds:683,519,62,42
e6/belt_deco
bounds:683,519,62,42
p4/belt_deco
bounds:683,519,62,42
p5/belt_deco
bounds:683,519,62,42
p6/belt_deco
bounds:683,519,62,42
e4/shoulder_l
bounds:958,697,62,66
offsets:3,0,65,66
e5/shoulder_l
bounds:958,697,62,66
offsets:3,0,65,66
e6/shoulder_l
bounds:958,697,62,66
offsets:3,0,65,66
e4/shoulder_r
bounds:709,451,62,66
offsets:0,0,65,66
e5/shoulder_r
bounds:709,451,62,66
offsets:0,0,65,66
e6/shoulder_r
bounds:709,451,62,66
offsets:0,0,65,66
e4/wepon_back
bounds:389,144,124,114
e5/wepon_back
bounds:389,144,124,114
e6/wepon_back
bounds:389,144,124,114
e5/body_deco
bounds:2,2,98,16
e6/body_deco
bounds:2,2,98,16
p5/body_deco
bounds:2,2,98,16
p6/body_deco
bounds:2,2,98,16
e5/head
bounds:2,610,156,212
e5/shield
bounds:297,502,119,163
e5/wepon_deco
bounds:748,659,35,25
rotate:90
e6/wepon_deco
bounds:748,659,35,25
rotate:90
p5/wepon_deco
bounds:748,659,35,25
rotate:90
p6/wepon_deco
bounds:748,659,35,25
rotate:90
e6/arm_r_decp
bounds:732,214,41,56
rotate:90
p6/arm_r_decp
bounds:732,214,41,56
rotate:90
e6/head
bounds:187,866,156,212
rotate:90
e6/shield_deco_3
bounds:247,260,119,163
e6/wepon
bounds:527,670,140,91
p6/wepon
bounds:527,670,140,91
e6/wepon_p6
bounds:638,338,101,94
rotate:90
p6/wepon_p6
bounds:638,338,101,94
rotate:90
ef
bounds:515,143,118,126
offsets:0,11,118,137
ef/1
bounds:637,441,70,70
offsets:12,12,94,94
ef/2
bounds:551,427,84,84
offsets:5,5,94,94
ef/3
bounds:638,244,92,92
offsets:1,1,94,94
ef/4
bounds:635,150,92,92
offsets:1,1,94,94
ef/5
bounds:776,659,90,90
offsets:2,2,94,94
ef/6
bounds:748,569,88,88
offsets:3,3,94,94
ef/7
bounds:868,661,88,88
offsets:3,3,94,94
ef/8
bounds:927,573,86,86
offsets:4,4,94,94
ef/9
bounds:838,570,87,87
offsets:4,3,94,94
ef/fog
bounds:176,425,100,56
offsets:4,2,106,60
ef/impact_0000_6
bounds:96,24,23,23
offsets:2,191,196,216
ef/impact_0001_5
bounds:187,832,32,208
offsets:6,2,196,216
rotate:90
ef/impact_0002_4
bounds:2,824,183,198
offsets:11,4,196,216
ef/impact_0003_3
bounds:2,425,172,183
offsets:17,11,196,216
ef/impact_0004_2
bounds:489,271,147,154
offsets:29,31,196,216
ef/impact_0005_1
bounds:135,133,109,108
offsets:51,53,196,216
ef/impact_2_0000_8
bounds:724,755,129,50
offsets:7,121,182,172
rotate:90
ef/impact_2_0001_7
bounds:297,425,130,75
offsets:7,95,182,172
ef/impact_2_0002_6
bounds:135,243,180,110
offsets:1,59,182,172
rotate:90
ef/impact_2_0003_5
bounds:776,906,177,116
offsets:3,50,182,172
ef/impact_2_0004_4
bounds:160,648,174,117
offsets:4,43,182,172
rotate:90
ef/impact_2_0005_3
bounds:608,886,166,136
offsets:9,19,182,172
ef/impact_2_0006_2
bounds:539,513,155,142
offsets:16,2,182,172
rotate:90
ef/impact_2_0007_1
bounds:776,751,129,114
offsets:32,1,182,172
eye_enemy
bounds:958,680,61,15
offsets:0,0,62,15
mouth_At
bounds:940,876,28,13
rotate:90
p1/arm_r
bounds:683,563,63,118
p1/head
bounds:2,218,131,205
p2/head
bounds:2,218,131,205
p3/head
bounds:2,218,131,205
p4/head
bounds:2,218,131,205
p1/shield
bounds:368,260,119,163
p2/shield
bounds:368,260,119,163
p3/shield
bounds:368,260,119,163
p4/shield
bounds:368,260,119,163
p3/shield_deco_2
bounds:401,770,119,163
rotate:90
p4/shield_deco_2
bounds:401,770,119,163
rotate:90
p5/shield_deco_2
bounds:401,770,119,163
rotate:90
p6/shield_deco_2
bounds:401,770,119,163
rotate:90
p3/shoulder_l
bounds:533,24,52,57
offsets:3,0,55,57
rotate:90
p3/shoulder_r
bounds:729,155,52,57
offsets:0,0,55,57
p4/shoulder_l
bounds:734,383,62,66
offsets:3,0,65,66
p5/shoulder_l
bounds:734,383,62,66
offsets:3,0,65,66
p6/shoulder_l
bounds:734,383,62,66
offsets:3,0,65,66
p4/shoulder_r
bounds:734,315,62,66
offsets:0,0,65,66
p5/shoulder_r
bounds:734,315,62,66
offsets:0,0,65,66
p6/shoulder_r
bounds:734,315,62,66
offsets:0,0,65,66
p4/wepon_back
bounds:134,17,124,114
p5/wepon_back
bounds:134,17,124,114
p6/wepon_back
bounds:134,17,124,114
p5/head
bounds:2,49,130,167
p6/head
bounds:2,49,130,167
p5/helmet
bounds:566,763,156,121
p6/helmet
bounds:566,763,156,121
p5/shield
bounds:418,502,119,163
p6/shield
bounds:418,502,119,163
p6/head_deco
bounds:429,427,120,73
p6/shield_deco_3
bounds:260,75,95,127
rotate:90
shadow
bounds:776,867,162,37
offsets:1,1,164,39
wepon_hand
bounds:747,519,42,22
offsets:0,0,53,22
rotate:90
