EarthRa.png
size:512,128
filter:Linear,Linear
scale:0.3
dark/body_up
bounds:211,70,88,56
dark/face
bounds:233,10,39,37
ef/fog
bounds:109,70,100,56
offsets:4,2,106,60
ef/straight_impact_0000_7
bounds:496,44,24,7
offsets:74,7,98,21
rotate:90
ef/straight_impact_0001_6
bounds:457,20,25,7
offsets:72,7,98,21
ef/straight_impact_0002_5
bounds:481,70,29,9
offsets:68,6,98,21
ef/straight_impact_0003_4
bounds:481,81,45,13
offsets:51,3,98,21
rotate:90
ef/straight_impact_0004_3
bounds:109,48,82,20
offsets:12,1,98,21
ef/straight_impact_0005_2
bounds:496,116,14,10
offsets:6,6,98,21
ef/straight_impact_0006_1
bounds:307,23,11,8
offsets:1,7,98,21
ra1/arm_l
bounds:277,33,35,61
rotate:90
ra2/arm_l
bounds:277,33,35,61
rotate:90
ra3/arm_l
bounds:277,33,35,61
rotate:90
ra1/arm_r
bounds:340,33,35,61
rotate:90
ra2/arm_r
bounds:340,33,35,61
rotate:90
ra3/arm_r
bounds:340,33,35,61
rotate:90
ra1/body_bottom
bounds:193,2,38,45
ra2/body_bottom
bounds:193,2,38,45
ra3/body_bottom
bounds:193,2,38,45
ra1/body_up
bounds:301,70,88,56
ra1/eye
bounds:274,13,31,18
offsets:1,2,37,23
ra2/eye
bounds:274,13,31,18
offsets:1,2,37,23
ra3/eye
bounds:274,13,31,18
offsets:1,2,37,23
ra1/face
bounds:457,29,39,37
rotate:90
ra2/face
bounds:457,29,39,37
rotate:90
ra3/face
bounds:457,29,39,37
rotate:90
ra1/wepon
bounds:403,16,52,52
ra2/wepon
bounds:403,16,52,52
ra3/wepon
bounds:403,16,52,52
ra1/wepon_back
bounds:102,8,35,33
rotate:90
ra2/wepon_back
bounds:102,8,35,33
rotate:90
ra3/wepon_back
bounds:102,8,35,33
rotate:90
ra2/body_up
bounds:391,70,88,56
ra3/body_up
bounds:391,70,88,56
ra2/neck
bounds:2,3,98,40
ra3/neck
bounds:2,3,98,40
ra3/manteau
bounds:2,45,105,81
shadow
bounds:193,49,82,19
offsets:0,0,82,20
