BeastAt.png
size:512,256
filter:Linear,Linear
scale:0.3
at1/arm_1_l
bounds:321,203,40,48
at2/arm_1_l
bounds:321,203,40,48
at3/arm_1_l
bounds:321,203,40,48
at1/arm_1_r
bounds:363,203,40,48
at2/arm_1_r
bounds:363,203,40,48
at3/arm_1_r
bounds:363,203,40,48
at1/arm_2_l
bounds:122,116,33,54
rotate:90
at2/arm_2_l
bounds:122,116,33,54
rotate:90
at3/arm_2_l
bounds:122,116,33,54
rotate:90
at1/arm_2_r
bounds:321,168,33,53
rotate:90
at2/arm_2_r
bounds:321,168,33,53
rotate:90
at3/arm_2_r
bounds:321,168,33,53
rotate:90
at1/body
bounds:194,146,53,76
at2/body
bounds:194,146,53,76
at3/body
bounds:194,146,53,76
at1/face
bounds:122,151,70,71
at2/face
bounds:122,151,70,71
at3/face
bounds:122,151,70,71
at1/foot_l
bounds:376,170,31,20
rotate:90
at2/foot_l
bounds:376,170,31,20
rotate:90
at3/foot_l
bounds:376,170,31,20
rotate:90
at1/foot_r
bounds:91,34,31,20
rotate:90
at2/foot_r
bounds:91,34,31,20
rotate:90
at3/foot_r
bounds:91,34,31,20
rotate:90
at1/leg_l
bounds:153,76,22,38
at2/leg_l
bounds:153,76,22,38
at3/leg_l
bounds:153,76,22,38
at1/leg_r
bounds:467,228,23,38
rotate:90
at2/leg_r
bounds:467,228,23,38
rotate:90
at3/leg_r
bounds:467,228,23,38
rotate:90
at1/wepon
bounds:2,19,87,46
at2/wepon
bounds:2,19,87,46
at3/wepon
bounds:2,19,87,46
at1/wepon_back
bounds:44,2,22,15
at2/wepon_back
bounds:44,2,22,15
at3/wepon_back
bounds:44,2,22,15
at2/shoulder_l
bounds:104,77,47,37
at3/shoulder_l
bounds:104,77,47,37
at2/shoulder_r
bounds:405,184,47,37
at3/shoulder_r
bounds:405,184,47,37
at3/helmet
bounds:405,223,60,28
dark/eye_dark
bounds:2,5,40,12
offsets:1,1,42,13
dark/face
bounds:249,180,70,71
dark/helmet_at
bounds:249,149,60,29
ef
bounds:2,125,118,126
offsets:0,11,118,137
ef/fog
bounds:2,67,100,56
offsets:4,2,106,60
shadow
bounds:122,224,117,27
offsets:0,1,118,29
