AirinDe.png
size:1024,1024
filter:Linear,Linear
scale:0.3
dark/eye_dark
bounds:984,858,33,10
offsets:1,1,35,12
dark/face
bounds:628,740,56,65
dark/hair_back
bounds:414,682,44,64
dark/hair_front
bounds:361,647,57,25
offsets:0,1,57,26
dark/helmet
bounds:170,563,66,61
dark/helmet_deco
bounds:330,748,73,53
dark/helmet_deco_2
bounds:739,788,14,16
ef/POSE_0000_8
bounds:285,748,39,10
offsets:0,8,94,23
ef/POSE_0001_7
bounds:149,511,42,19
offsets:0,3,94,23
rotate:90
ef/POSE_0002_6
bounds:170,541,67,20
offsets:1,2,94,23
ef/POSE_0003_5
bounds:2,2,68,21
offsets:3,1,94,23
ef/POSE_0004_4
bounds:535,732,72,23
offsets:4,0,94,23
rotate:90
ef/POSE_0005_3
bounds:176,626,73,23
offsets:7,0,94,23
ef/POSE_0006_2
bounds:285,650,74,22
offsets:12,1,94,23
ef/POSE_0007_1
bounds:176,770,21,9
offsets:73,1,94,23
rotate:90
ef/fog
bounds:2,25,100,56
offsets:4,2,106,60
ef/impact_0000_6
bounds:251,626,23,23
offsets:2,191,196,216
ef/impact_0001_5
bounds:2,429,32,208
offsets:6,2,196,216
ef/impact_0002_4
bounds:2,824,183,198
offsets:11,4,196,216
ef/impact_0003_3
bounds:2,639,172,183
offsets:17,11,196,216
ef/impact_0004_2
bounds:187,868,147,154
offsets:29,31,196,216
ef/impact_0005_1
bounds:36,415,109,108
offsets:51,53,196,216
ef/straight_impact_0000_7
bounds:1015,998,24,7
offsets:74,7,98,21
rotate:90
ef/straight_impact_0001_6
bounds:104,56,25,7
offsets:72,7,98,21
rotate:90
ef/straight_impact_0002_5
bounds:176,793,29,9
offsets:68,6,98,21
rotate:90
ef/straight_impact_0003_4
bounds:238,579,45,13
offsets:51,3,98,21
rotate:90
ef/straight_impact_0004_3
bounds:649,826,82,20
offsets:12,1,98,21
rotate:90
ef/straight_impact_0005_2
bounds:238,563,14,10
offsets:6,6,98,21
rotate:90
ef/straight_impact_0006_1
bounds:26,416,11,8
offsets:1,7,98,21
rotate:90
glow
bounds:285,674,72,72
offsets:7,6,85,85
mouth_at
bounds:176,762,9,6
p1/arm_1_l
bounds:755,824,20,28
rotate:90
p2/arm_1_l
bounds:755,824,20,28
rotate:90
p3/arm_1_l
bounds:755,824,20,28
rotate:90
p4/arm_1_l
bounds:755,824,20,28
rotate:90
p5/arm_1_l
bounds:755,824,20,28
rotate:90
p6/arm_1_l
bounds:755,824,20,28
rotate:90
p1/arm_1_r
bounds:785,824,20,28
rotate:90
p2/arm_1_r
bounds:785,824,20,28
rotate:90
p3/arm_1_r
bounds:785,824,20,28
rotate:90
p4/arm_1_r
bounds:785,824,20,28
rotate:90
p5/arm_1_r
bounds:785,824,20,28
rotate:90
p6/arm_1_r
bounds:785,824,20,28
rotate:90
p1/arm_2_l
bounds:714,682,26,36
p2/arm_2_l
bounds:714,682,26,36
p3/arm_2_l
bounds:714,682,26,36
p4/arm_2_l
bounds:714,682,26,36
p5/arm_2_l
bounds:714,682,26,36
p6/arm_2_l
bounds:714,682,26,36
p1/arm_2_r
bounds:171,4,23,36
p2/arm_2_r
bounds:171,4,23,36
p3/arm_2_r
bounds:171,4,23,36
p4/arm_2_r
bounds:171,4,23,36
p5/arm_2_r
bounds:171,4,23,36
p6/arm_2_r
bounds:171,4,23,36
p1/body
bounds:984,870,33,40
p2/body
bounds:984,870,33,40
p3/body
bounds:984,870,33,40
p4/body
bounds:984,870,33,40
p5/body
bounds:984,870,33,40
p6/body
bounds:984,870,33,40
p1/face
bounds:628,673,56,65
p2/face
bounds:628,673,56,65
p3/face
bounds:628,673,56,65
p4/face
bounds:628,673,56,65
p1/foot_l
bounds:771,792,16,11
p2/foot_l
bounds:771,792,16,11
p3/foot_l
bounds:771,792,16,11
p4/foot_l
bounds:771,792,16,11
p5/foot_l
bounds:771,792,16,11
p6/foot_l
bounds:771,792,16,11
p1/foot_r
bounds:739,734,16,11
rotate:90
p2/foot_r
bounds:739,734,16,11
rotate:90
p3/foot_r
bounds:739,734,16,11
rotate:90
p4/foot_r
bounds:739,734,16,11
rotate:90
p5/foot_r
bounds:739,734,16,11
rotate:90
p6/foot_r
bounds:739,734,16,11
rotate:90
p1/hair_front
bounds:204,124,57,25
offsets:0,1,57,26
p2/hair_front
bounds:204,124,57,25
offsets:0,1,57,26
p3/hair_front
bounds:204,124,57,25
offsets:0,1,57,26
p4/hair_front
bounds:204,124,57,25
offsets:0,1,57,26
p1/leg_1_l
bounds:649,807,17,35
rotate:90
p2/leg_1_l
bounds:649,807,17,35
rotate:90
p3/leg_1_l
bounds:649,807,17,35
rotate:90
p4/leg_1_l
bounds:649,807,17,35
rotate:90
p5/leg_1_l
bounds:649,807,17,35
rotate:90
p6/leg_1_l
bounds:649,807,17,35
rotate:90
p1/leg_1_r
bounds:147,474,17,35
p2/leg_1_r
bounds:147,474,17,35
p3/leg_1_r
bounds:147,474,17,35
p4/leg_1_r
bounds:147,474,17,35
p5/leg_1_r
bounds:147,474,17,35
p6/leg_1_r
bounds:147,474,17,35
p1/leg_2_l
bounds:778,805,17,20
rotate:90
p2/leg_2_l
bounds:778,805,17,20
rotate:90
p3/leg_2_l
bounds:778,805,17,20
rotate:90
p4/leg_2_l
bounds:778,805,17,20
rotate:90
p5/leg_2_l
bounds:778,805,17,20
rotate:90
p6/leg_2_l
bounds:778,805,17,20
rotate:90
p1/leg_2_r
bounds:755,805,17,21
rotate:90
p2/leg_2_r
bounds:755,805,17,21
rotate:90
p3/leg_2_r
bounds:755,805,17,21
rotate:90
p4/leg_2_r
bounds:755,805,17,21
rotate:90
p5/leg_2_r
bounds:755,805,17,21
rotate:90
p6/leg_2_r
bounds:755,805,17,21
rotate:90
p1/neck
bounds:671,826,37,16
p2/neck
bounds:671,826,37,16
p3/neck
bounds:671,826,37,16
p4/neck
bounds:671,826,37,16
p5/neck
bounds:671,826,37,16
p6/neck
bounds:671,826,37,16
p1/shield
bounds:198,59,51,63
p2/shield
bounds:198,59,51,63
p3/shield
bounds:198,59,51,63
p1/skirt
bounds:296,820,46,38
rotate:90
p1/wepon
bounds:251,59,63,24
offsets:0,0,64,24
rotate:90
p2/wepon
bounds:251,59,63,24
offsets:0,0,64,24
rotate:90
p3/wepon
bounds:251,59,63,24
offsets:0,0,64,24
rotate:90
p4/wepon
bounds:251,59,63,24
offsets:0,0,64,24
rotate:90
p5/wepon
bounds:251,59,63,24
offsets:0,0,64,24
rotate:90
p6/wepon
bounds:251,59,63,24
offsets:0,0,64,24
rotate:90
p1/wepon_back
bounds:2,416,22,11
p2/wepon_back
bounds:2,416,22,11
p3/wepon_back
bounds:2,416,22,11
p4/wepon_back
bounds:2,416,22,11
p5/wepon_back
bounds:2,416,22,11
p6/wepon_back
bounds:2,416,22,11
p2/body_deco
bounds:170,519,43,20
p2/shoulder_l
bounds:841,821,23,23
p3/shoulder_l
bounds:841,821,23,23
p4/shoulder_l
bounds:841,821,23,23
p5/shoulder_l
bounds:841,821,23,23
p6/shoulder_l
bounds:841,821,23,23
p2/shoulder_r
bounds:529,671,29,26
p3/shoulder_r
bounds:529,671,29,26
p4/shoulder_r
bounds:529,671,29,26
p5/shoulder_r
bounds:529,671,29,26
p6/shoulder_r
bounds:529,671,29,26
p2/skirt
bounds:123,2,46,38
p3/skirt
bounds:123,2,46,38
p4/skirt
bounds:123,2,46,38
p5/skirt
bounds:123,2,46,38
p6/skirt
bounds:123,2,46,38
p3/body_deco
bounds:296,765,53,32
rotate:90
p4/body_deco
bounds:296,765,53,32
rotate:90
p5/body_deco
bounds:296,765,53,32
rotate:90
p6/body_deco
bounds:296,765,53,32
rotate:90
p3/manteau_bottom
bounds:686,678,26,40
p4/manteau_bottom
bounds:686,678,26,40
p5/manteau_bottom
bounds:686,678,26,40
p6/manteau_bottom
bounds:686,678,26,40
p3/shoulder_l_deco
bounds:739,806,18,14
rotate:90
p4/shoulder_l_deco
bounds:739,806,18,14
rotate:90
p5/shoulder_l_deco
bounds:739,806,18,14
rotate:90
p6/shoulder_l_deco
bounds:739,806,18,14
rotate:90
p3/shoulder_neck_l
bounds:815,803,15,21
rotate:90
p4/shoulder_neck_l
bounds:815,803,15,21
rotate:90
p5/shoulder_neck_l
bounds:815,803,15,21
rotate:90
p6/shoulder_neck_l
bounds:815,803,15,21
rotate:90
p3/shoulder_neck_r
bounds:147,415,20,26
p4/shoulder_neck_r
bounds:147,415,20,26
p5/shoulder_neck_r
bounds:147,415,20,26
p6/shoulder_neck_r
bounds:147,415,20,26
p3/shoulder_r_deco
bounds:710,826,20,16
p4/shoulder_r_deco
bounds:710,826,20,16
p5/shoulder_r_deco
bounds:710,826,20,16
p6/shoulder_r_deco
bounds:710,826,20,16
p4/shield
bounds:717,846,51,63
p5/shield
bounds:717,846,51,63
p4/shoulder_l_horn
bounds:147,443,29,19
rotate:90
p5/shoulder_l_horn
bounds:147,443,29,19
rotate:90
p6/shoulder_l_horn
bounds:147,443,29,19
rotate:90
p4/shoulder_r_horn
bounds:253,595,29,24
rotate:90
p5/shoulder_r_horn
bounds:253,595,29,24
rotate:90
p6/shoulder_r_horn
bounds:253,595,29,24
rotate:90
p5/face
bounds:204,151,56,65
p6/face
bounds:204,151,56,65
p5/foot_l_armor
bounds:800,806,16,13
rotate:90
p6/foot_l_armor
bounds:800,806,16,13
rotate:90
p5/foot_r_armor
bounds:739,752,16,13
rotate:90
p6/foot_r_armor
bounds:739,752,16,13
rotate:90
p5/helmet
bounds:560,744,66,61
p5/wepon_deco
bounds:72,2,21,49
rotate:90
p6/wepon_deco
bounds:72,2,21,49
rotate:90
p6/arm_2_l_armor
bounds:529,699,29,31
p6/glow
bounds:686,773,51,51
offsets:4,5,60,60
p6/hair_back
bounds:671,844,44,64
p6/helmet
bounds:560,681,66,61
p6/helmet_deco
bounds:359,674,72,53
rotate:90
p6/helmet_deco_2
bounds:739,770,14,16
p6/helmet_deco_bottom
bounds:755,787,14,16
p6/leg_2_l_deco
bounds:732,826,18,21
rotate:90
p6/leg_2_r_deco
bounds:215,521,18,21
rotate:90
p6/manteau
bounds:460,680,51,67
rotate:90
p6/shield
bounds:770,846,51,63
p6/shield_deco
bounds:823,846,51,63
p6/wepon_deco_2
bounds:253,576,23,17
shadow
bounds:149,555,82,19
offsets:0,0,82,20
rotate:90
skill_03
bounds:198,2,55,56
offsets:38,38,131,131
rotate:90
skill_04
bounds:461,733,71,72
offsets:30,30,131,131
rotate:90
skill_05
bounds:113,42,83,83
offsets:24,24,131,131
skill_06
bounds:113,127,89,89
offsets:21,21,131,131
skill_07
bounds:113,218,95,95
offsets:18,18,131,131
skill_08
bounds:113,315,98,98
offsets:17,17,131,131
skill_09
bounds:443,806,101,102
offsets:15,15,131,131
skill_10
bounds:336,803,105,105
offsets:13,13,131,131
skill_11
bounds:187,760,107,106
offsets:12,13,131,131
skill_12
bounds:2,83,109,108
offsets:11,12,131,131
skill_13
bounds:2,304,109,109
offsets:11,11,131,131
skill_14
bounds:902,912,111,110
offsets:10,11,131,131
skill_15
bounds:676,911,111,111
offsets:10,10,131,131
skill_16
bounds:36,525,111,112
offsets:10,10,131,131
skill_17
bounds:336,910,112,112
offsets:10,10,131,131
skill_18
bounds:450,910,111,112
offsets:10,10,131,131
skill_19
bounds:563,910,111,112
offsets:10,10,131,131
skill_20
bounds:789,911,111,111
offsets:10,10,131,131
skill_21
bounds:2,193,109,109
offsets:11,11,131,131
skill_22
bounds:176,651,107,107
offsets:12,12,131,131
skill_23
bounds:546,807,101,101
offsets:15,15,131,131
skill_24
bounds:405,748,53,54
offsets:39,39,131,131
rotate:90
skill_25
bounds:256,4,53,53
offsets:39,39,131,131
skill_26
bounds:876,856,53,52
offsets:39,40,131,131
rotate:90
skill_27
bounds:930,858,52,52
offsets:40,40,131,131
skill_28
bounds:686,720,51,51
offsets:40,40,131,131
skill_29
bounds:815,820,24,24
offsets:54,54,131,131
