GoblinAt.png
size:512,256
filter:Linear,Linear
scale:0.3
at1/arm_1_l
bounds:282,2,22,34
rotate:90
at2/arm_1_l
bounds:282,2,22,34
rotate:90
at3/arm_1_l
bounds:282,2,22,34
rotate:90
at1/arm_2_l
bounds:86,3,20,32
at2/arm_2_l
bounds:86,3,20,32
at3/arm_2_l
bounds:86,3,20,32
at1/arm_r
bounds:313,92,25,52
at1/body
bounds:265,200,44,52
at2/body
bounds:265,200,44,52
at3/body
bounds:265,200,44,52
at1/face
bounds:180,62,94,60
rotate:90
at2/face
bounds:180,62,94,60
rotate:90
at1/foot_l
bounds:108,3,16,11
at2/foot_l
bounds:108,3,16,11
at3/foot_l
bounds:108,3,16,11
at1/foot_r
bounds:65,3,17,11
at2/foot_r
bounds:65,3,17,11
at3/foot_r
bounds:65,3,17,11
at1/leg_l
bounds:313,60,17,30
at2/leg_l
bounds:313,60,17,30
at3/leg_l
bounds:313,60,17,30
at1/leg_r
bounds:311,222,17,30
at2/leg_r
bounds:311,222,17,30
at3/leg_r
bounds:311,222,17,30
at1/wepon
bounds:282,26,47,29
rotate:90
at2/wepon
bounds:282,26,47,29
rotate:90
at3/wepon
bounds:282,26,47,29
rotate:90
at2/arm_r
bounds:305,146,25,52
at3/arm_r
bounds:305,146,25,52
at2/shoulder_l
bounds:202,160,30,26
at3/shoulder_l
bounds:202,160,30,26
at2/shoulder_r
bounds:140,130,30,26
at3/shoulder_r
bounds:140,130,30,26
at3/face
bounds:140,158,94,60
rotate:90
at3/hat
bounds:242,122,61,64
dark/eye_dark
bounds:2,2,38,12
offsets:1,2,41,15
dark/face
bounds:118,16,94,60
rotate:90
dark/hat_at3
bounds:202,188,61,64
ef/ef_0000_n_5
bounds:242,75,45,69
offsets:125,22,209,180
rotate:90
ef/ef_0001_n_4
bounds:2,37,73,114
offsets:111,17,209,180
rotate:90
ef/ef_0002_n_3
bounds:2,112,136,140
offsets:50,18,209,180
ef/ef_0003_n_2
bounds:140,114,34,14
offsets:44,141,209,180
ef/ef_0004_n_1
bounds:42,3,21,11
offsets:42,145,209,180
ef/fog
bounds:180,4,100,56
offsets:4,2,106,60
shadow
bounds:2,16,82,19
offsets:0,1,82,20
