
Eloon.png
size: 1024, 512
format: RGBA8888
filter: Linear, Linear
repeat: none
arrow_at
  rotate: false
  xy: 632, 252
  size: 25, 26
  orig: 25, 26
  offset: 0, 0
  index: -1
e1/arm_1_l
  rotate: true
  xy: 630, 479
  size: 30, 26
  orig: 30, 26
  offset: 0, 0
  index: -1
e2/arm_1_l
  rotate: true
  xy: 630, 479
  size: 30, 26
  orig: 30, 26
  offset: 0, 0
  index: -1
e3/arm_1_l
  rotate: true
  xy: 630, 479
  size: 30, 26
  orig: 30, 26
  offset: 0, 0
  index: -1
e4/arm_1_l
  rotate: true
  xy: 630, 479
  size: 30, 26
  orig: 30, 26
  offset: 0, 0
  index: -1
e5/arm_1_l
  rotate: true
  xy: 630, 479
  size: 30, 26
  orig: 30, 26
  offset: 0, 0
  index: -1
e6/arm_1_l
  rotate: true
  xy: 630, 479
  size: 30, 26
  orig: 30, 26
  offset: 0, 0
  index: -1
e1/arm_1_r
  rotate: true
  xy: 652, 135
  size: 33, 17
  orig: 33, 17
  offset: 0, 0
  index: -1
e2/arm_1_r
  rotate: true
  xy: 652, 135
  size: 33, 17
  orig: 33, 17
  offset: 0, 0
  index: -1
e3/arm_1_r
  rotate: true
  xy: 652, 135
  size: 33, 17
  orig: 33, 17
  offset: 0, 0
  index: -1
e4/arm_1_r
  rotate: true
  xy: 652, 135
  size: 33, 17
  orig: 33, 17
  offset: 0, 0
  index: -1
e5/arm_1_r
  rotate: true
  xy: 652, 135
  size: 33, 17
  orig: 33, 17
  offset: 0, 0
  index: -1
e6/arm_1_r
  rotate: true
  xy: 652, 135
  size: 33, 17
  orig: 33, 17
  offset: 0, 0
  index: -1
e1/arm_2_l
  rotate: false
  xy: 396, 7
  size: 29, 40
  orig: 29, 40
  offset: 0, 0
  index: -1
e2/arm_2_l
  rotate: false
  xy: 396, 7
  size: 29, 40
  orig: 29, 40
  offset: 0, 0
  index: -1
e3/arm_2_l
  rotate: false
  xy: 396, 7
  size: 29, 40
  orig: 29, 40
  offset: 0, 0
  index: -1
e4/arm_2_l
  rotate: false
  xy: 396, 7
  size: 29, 40
  orig: 29, 40
  offset: 0, 0
  index: -1
e5/arm_2_l
  rotate: false
  xy: 396, 7
  size: 29, 40
  orig: 29, 40
  offset: 0, 0
  index: -1
e6/arm_2_l
  rotate: false
  xy: 396, 7
  size: 29, 40
  orig: 29, 40
  offset: 0, 0
  index: -1
p1/arm_2_l
  rotate: false
  xy: 396, 7
  size: 29, 40
  orig: 29, 40
  offset: 0, 0
  index: -1
p2/arm_2_l
  rotate: false
  xy: 396, 7
  size: 29, 40
  orig: 29, 40
  offset: 0, 0
  index: -1
p3/arm_2_l
  rotate: false
  xy: 396, 7
  size: 29, 40
  orig: 29, 40
  offset: 0, 0
  index: -1
p4/arm_2_l
  rotate: false
  xy: 396, 7
  size: 29, 40
  orig: 29, 40
  offset: 0, 0
  index: -1
p5/arm_2_l
  rotate: false
  xy: 396, 7
  size: 29, 40
  orig: 29, 40
  offset: 0, 0
  index: -1
p6/arm_2_l
  rotate: false
  xy: 396, 7
  size: 29, 40
  orig: 29, 40
  offset: 0, 0
  index: -1
e1/arm_2_r
  rotate: true
  xy: 606, 220
  size: 42, 24
  orig: 42, 24
  offset: 0, 0
  index: -1
e2/arm_2_r
  rotate: true
  xy: 606, 220
  size: 42, 24
  orig: 42, 24
  offset: 0, 0
  index: -1
e3/arm_2_r
  rotate: true
  xy: 606, 220
  size: 42, 24
  orig: 42, 24
  offset: 0, 0
  index: -1
e4/arm_2_r
  rotate: true
  xy: 606, 220
  size: 42, 24
  orig: 42, 24
  offset: 0, 0
  index: -1
e5/arm_2_r
  rotate: true
  xy: 606, 220
  size: 42, 24
  orig: 42, 24
  offset: 0, 0
  index: -1
e6/arm_2_r
  rotate: true
  xy: 606, 220
  size: 42, 24
  orig: 42, 24
  offset: 0, 0
  index: -1
p1/arm_2_r
  rotate: true
  xy: 606, 220
  size: 42, 24
  orig: 42, 24
  offset: 0, 0
  index: -1
p2/arm_2_r
  rotate: true
  xy: 606, 220
  size: 42, 24
  orig: 42, 24
  offset: 0, 0
  index: -1
p3/arm_2_r
  rotate: true
  xy: 606, 220
  size: 42, 24
  orig: 42, 24
  offset: 0, 0
  index: -1
p4/arm_2_r
  rotate: true
  xy: 606, 220
  size: 42, 24
  orig: 42, 24
  offset: 0, 0
  index: -1
p5/arm_2_r
  rotate: true
  xy: 606, 220
  size: 42, 24
  orig: 42, 24
  offset: 0, 0
  index: -1
p6/arm_2_r
  rotate: true
  xy: 606, 220
  size: 42, 24
  orig: 42, 24
  offset: 0, 0
  index: -1
e1/arrow
  rotate: false
  xy: 187, 77
  size: 73, 72
  orig: 73, 72
  offset: 0, 0
  index: -1
e2/arrow
  rotate: false
  xy: 187, 77
  size: 73, 72
  orig: 73, 72
  offset: 0, 0
  index: -1
e3/arrow
  rotate: false
  xy: 187, 77
  size: 73, 72
  orig: 73, 72
  offset: 0, 0
  index: -1
e4/arrow
  rotate: false
  xy: 187, 77
  size: 73, 72
  orig: 73, 72
  offset: 0, 0
  index: -1
e5/arrow
  rotate: false
  xy: 187, 77
  size: 73, 72
  orig: 73, 72
  offset: 0, 0
  index: -1
e6/arrow
  rotate: false
  xy: 187, 77
  size: 73, 72
  orig: 73, 72
  offset: 0, 0
  index: -1
p1/arrow
  rotate: false
  xy: 187, 77
  size: 73, 72
  orig: 73, 72
  offset: 0, 0
  index: -1
p2/arrow
  rotate: false
  xy: 187, 77
  size: 73, 72
  orig: 73, 72
  offset: 0, 0
  index: -1
p3/arrow
  rotate: false
  xy: 187, 77
  size: 73, 72
  orig: 73, 72
  offset: 0, 0
  index: -1
p4/arrow
  rotate: false
  xy: 187, 77
  size: 73, 72
  orig: 73, 72
  offset: 0, 0
  index: -1
p5/arrow
  rotate: false
  xy: 187, 77
  size: 73, 72
  orig: 73, 72
  offset: 0, 0
  index: -1
p6/arrow
  rotate: false
  xy: 187, 77
  size: 73, 72
  orig: 73, 72
  offset: 0, 0
  index: -1
e1/arrow_back
  rotate: true
  xy: 514, 361
  size: 75, 46
  orig: 75, 47
  offset: 0, 1
  index: -1
e2/arrow_back
  rotate: true
  xy: 514, 361
  size: 75, 46
  orig: 75, 47
  offset: 0, 1
  index: -1
e3/arrow_back
  rotate: true
  xy: 514, 361
  size: 75, 46
  orig: 75, 47
  offset: 0, 1
  index: -1
e4/arrow_back
  rotate: true
  xy: 514, 361
  size: 75, 46
  orig: 75, 47
  offset: 0, 1
  index: -1
e5/arrow_back
  rotate: true
  xy: 514, 361
  size: 75, 46
  orig: 75, 47
  offset: 0, 1
  index: -1
e6/arrow_back
  rotate: true
  xy: 514, 361
  size: 75, 46
  orig: 75, 47
  offset: 0, 1
  index: -1
e1/arrow_rope
  rotate: true
  xy: 518, 5
  size: 55, 42
  orig: 58, 45
  offset: 3, 2
  index: -1
e2/arrow_rope
  rotate: true
  xy: 518, 5
  size: 55, 42
  orig: 58, 45
  offset: 3, 2
  index: -1
e3/arrow_rope
  rotate: true
  xy: 518, 5
  size: 55, 42
  orig: 58, 45
  offset: 3, 2
  index: -1
e4/arrow_rope
  rotate: true
  xy: 518, 5
  size: 55, 42
  orig: 58, 45
  offset: 3, 2
  index: -1
e5/arrow_rope
  rotate: true
  xy: 518, 5
  size: 55, 42
  orig: 58, 45
  offset: 3, 2
  index: -1
e6/arrow_rope
  rotate: true
  xy: 518, 5
  size: 55, 42
  orig: 58, 45
  offset: 3, 2
  index: -1
p1/arrow_rope
  rotate: true
  xy: 518, 5
  size: 55, 42
  orig: 58, 45
  offset: 3, 2
  index: -1
p2/arrow_rope
  rotate: true
  xy: 518, 5
  size: 55, 42
  orig: 58, 45
  offset: 3, 2
  index: -1
p3/arrow_rope
  rotate: true
  xy: 518, 5
  size: 55, 42
  orig: 58, 45
  offset: 3, 2
  index: -1
p4/arrow_rope
  rotate: true
  xy: 518, 5
  size: 55, 42
  orig: 58, 45
  offset: 3, 2
  index: -1
p5/arrow_rope
  rotate: true
  xy: 518, 5
  size: 55, 42
  orig: 58, 45
  offset: 3, 2
  index: -1
p6/arrow_rope
  rotate: true
  xy: 518, 5
  size: 55, 42
  orig: 58, 45
  offset: 3, 2
  index: -1
e1/body
  rotate: true
  xy: 72, 2
  size: 44, 60
  orig: 44, 60
  offset: 0, 0
  index: -1
e2/body
  rotate: true
  xy: 72, 2
  size: 44, 60
  orig: 44, 60
  offset: 0, 0
  index: -1
e3/body
  rotate: true
  xy: 72, 2
  size: 44, 60
  orig: 44, 60
  offset: 0, 0
  index: -1
e4/body
  rotate: true
  xy: 72, 2
  size: 44, 60
  orig: 44, 60
  offset: 0, 0
  index: -1
e5/body
  rotate: true
  xy: 72, 2
  size: 44, 60
  orig: 44, 60
  offset: 0, 0
  index: -1
e6/body
  rotate: true
  xy: 72, 2
  size: 44, 60
  orig: 44, 60
  offset: 0, 0
  index: -1
e1/eye_enemy
  rotate: false
  xy: 314, 70
  size: 8, 7
  orig: 8, 7
  offset: 0, 0
  index: -1
e2/eye_enemy
  rotate: false
  xy: 314, 70
  size: 8, 7
  orig: 8, 7
  offset: 0, 0
  index: -1
e3/eye_enemy
  rotate: false
  xy: 314, 70
  size: 8, 7
  orig: 8, 7
  offset: 0, 0
  index: -1
e4/eye_enemy
  rotate: false
  xy: 314, 70
  size: 8, 7
  orig: 8, 7
  offset: 0, 0
  index: -1
e5/eye_enemy
  rotate: false
  xy: 314, 70
  size: 8, 7
  orig: 8, 7
  offset: 0, 0
  index: -1
e6/eye_enemy
  rotate: false
  xy: 314, 70
  size: 8, 7
  orig: 8, 7
  offset: 0, 0
  index: -1
e1/face
  rotate: false
  xy: 229, 13
  size: 65, 62
  orig: 65, 62
  offset: 0, 0
  index: -1
e2/face
  rotate: false
  xy: 229, 13
  size: 65, 62
  orig: 65, 62
  offset: 0, 0
  index: -1
e3/face
  rotate: false
  xy: 229, 13
  size: 65, 62
  orig: 65, 62
  offset: 0, 0
  index: -1
e4/face
  rotate: false
  xy: 229, 13
  size: 65, 62
  orig: 65, 62
  offset: 0, 0
  index: -1
e5/face
  rotate: false
  xy: 229, 13
  size: 65, 62
  orig: 65, 62
  offset: 0, 0
  index: -1
e6/face
  rotate: false
  xy: 229, 13
  size: 65, 62
  orig: 65, 62
  offset: 0, 0
  index: -1
e1/hair
  rotate: true
  xy: 460, 35
  size: 87, 56
  orig: 88, 57
  offset: 0, 1
  index: -1
e2/hair
  rotate: true
  xy: 460, 35
  size: 87, 56
  orig: 88, 57
  offset: 0, 1
  index: -1
e3/hair
  rotate: true
  xy: 460, 35
  size: 87, 56
  orig: 88, 57
  offset: 0, 1
  index: -1
e4/hair
  rotate: true
  xy: 460, 35
  size: 87, 56
  orig: 88, 57
  offset: 0, 1
  index: -1
e5/hair
  rotate: true
  xy: 460, 35
  size: 87, 56
  orig: 88, 57
  offset: 0, 1
  index: -1
e1/hair_back
  rotate: false
  xy: 617, 181
  size: 23, 37
  orig: 23, 37
  offset: 0, 0
  index: -1
e2/hair_back
  rotate: false
  xy: 617, 181
  size: 23, 37
  orig: 23, 37
  offset: 0, 0
  index: -1
e3/hair_back
  rotate: false
  xy: 617, 181
  size: 23, 37
  orig: 23, 37
  offset: 0, 0
  index: -1
e4/hair_back
  rotate: false
  xy: 617, 181
  size: 23, 37
  orig: 23, 37
  offset: 0, 0
  index: -1
e5/hair_back
  rotate: false
  xy: 617, 181
  size: 23, 37
  orig: 23, 37
  offset: 0, 0
  index: -1
e1/leg_1_l
  rotate: false
  xy: 630, 444
  size: 23, 33
  orig: 23, 37
  offset: 0, 4
  index: -1
e2/leg_1_l
  rotate: false
  xy: 630, 444
  size: 23, 33
  orig: 23, 37
  offset: 0, 4
  index: -1
e3/leg_1_l
  rotate: false
  xy: 630, 444
  size: 23, 33
  orig: 23, 37
  offset: 0, 4
  index: -1
e4/leg_1_l
  rotate: false
  xy: 630, 444
  size: 23, 33
  orig: 23, 37
  offset: 0, 4
  index: -1
e5/leg_1_l
  rotate: false
  xy: 630, 444
  size: 23, 33
  orig: 23, 37
  offset: 0, 4
  index: -1
e6/leg_1_l
  rotate: false
  xy: 630, 444
  size: 23, 33
  orig: 23, 37
  offset: 0, 4
  index: -1
p1/leg_1_l
  rotate: false
  xy: 630, 444
  size: 23, 33
  orig: 23, 37
  offset: 0, 4
  index: -1
p2/leg_1_l
  rotate: false
  xy: 630, 444
  size: 23, 33
  orig: 23, 37
  offset: 0, 4
  index: -1
p3/leg_1_l
  rotate: false
  xy: 630, 444
  size: 23, 33
  orig: 23, 37
  offset: 0, 4
  index: -1
p4/leg_1_l
  rotate: false
  xy: 630, 444
  size: 23, 33
  orig: 23, 37
  offset: 0, 4
  index: -1
p5/leg_1_l
  rotate: false
  xy: 630, 444
  size: 23, 33
  orig: 23, 37
  offset: 0, 4
  index: -1
p6/leg_1_l
  rotate: false
  xy: 630, 444
  size: 23, 33
  orig: 23, 37
  offset: 0, 4
  index: -1
e1/leg_1_r
  rotate: false
  xy: 617, 147
  size: 25, 32
  orig: 25, 36
  offset: 0, 4
  index: -1
e2/leg_1_r
  rotate: false
  xy: 617, 147
  size: 25, 32
  orig: 25, 36
  offset: 0, 4
  index: -1
e3/leg_1_r
  rotate: false
  xy: 617, 147
  size: 25, 32
  orig: 25, 36
  offset: 0, 4
  index: -1
e4/leg_1_r
  rotate: false
  xy: 617, 147
  size: 25, 32
  orig: 25, 36
  offset: 0, 4
  index: -1
e5/leg_1_r
  rotate: false
  xy: 617, 147
  size: 25, 32
  orig: 25, 36
  offset: 0, 4
  index: -1
e6/leg_1_r
  rotate: false
  xy: 617, 147
  size: 25, 32
  orig: 25, 36
  offset: 0, 4
  index: -1
p1/leg_1_r
  rotate: false
  xy: 617, 147
  size: 25, 32
  orig: 25, 36
  offset: 0, 4
  index: -1
p2/leg_1_r
  rotate: false
  xy: 617, 147
  size: 25, 32
  orig: 25, 36
  offset: 0, 4
  index: -1
p3/leg_1_r
  rotate: false
  xy: 617, 147
  size: 25, 32
  orig: 25, 36
  offset: 0, 4
  index: -1
p4/leg_1_r
  rotate: false
  xy: 617, 147
  size: 25, 32
  orig: 25, 36
  offset: 0, 4
  index: -1
p5/leg_1_r
  rotate: false
  xy: 617, 147
  size: 25, 32
  orig: 25, 36
  offset: 0, 4
  index: -1
p6/leg_1_r
  rotate: false
  xy: 617, 147
  size: 25, 32
  orig: 25, 36
  offset: 0, 4
  index: -1
e1/leg_2_l
  rotate: true
  xy: 637, 313
  size: 25, 23
  orig: 25, 23
  offset: 0, 0
  index: -1
e2/leg_2_l
  rotate: true
  xy: 637, 313
  size: 25, 23
  orig: 25, 23
  offset: 0, 0
  index: -1
e3/leg_2_l
  rotate: true
  xy: 637, 313
  size: 25, 23
  orig: 25, 23
  offset: 0, 0
  index: -1
e4/leg_2_l
  rotate: true
  xy: 637, 313
  size: 25, 23
  orig: 25, 23
  offset: 0, 0
  index: -1
e5/leg_2_l
  rotate: true
  xy: 637, 313
  size: 25, 23
  orig: 25, 23
  offset: 0, 0
  index: -1
e6/leg_2_l
  rotate: true
  xy: 637, 313
  size: 25, 23
  orig: 25, 23
  offset: 0, 0
  index: -1
p1/leg_2_l
  rotate: true
  xy: 637, 313
  size: 25, 23
  orig: 25, 23
  offset: 0, 0
  index: -1
p2/leg_2_l
  rotate: true
  xy: 637, 313
  size: 25, 23
  orig: 25, 23
  offset: 0, 0
  index: -1
p3/leg_2_l
  rotate: true
  xy: 637, 313
  size: 25, 23
  orig: 25, 23
  offset: 0, 0
  index: -1
p4/leg_2_l
  rotate: true
  xy: 637, 313
  size: 25, 23
  orig: 25, 23
  offset: 0, 0
  index: -1
p5/leg_2_l
  rotate: true
  xy: 637, 313
  size: 25, 23
  orig: 25, 23
  offset: 0, 0
  index: -1
p6/leg_2_l
  rotate: true
  xy: 637, 313
  size: 25, 23
  orig: 25, 23
  offset: 0, 0
  index: -1
e1/leg_2_r
  rotate: false
  xy: 635, 49
  size: 23, 25
  orig: 23, 25
  offset: 0, 0
  index: -1
e2/leg_2_r
  rotate: false
  xy: 635, 49
  size: 23, 25
  orig: 23, 25
  offset: 0, 0
  index: -1
e3/leg_2_r
  rotate: false
  xy: 635, 49
  size: 23, 25
  orig: 23, 25
  offset: 0, 0
  index: -1
e4/leg_2_r
  rotate: false
  xy: 635, 49
  size: 23, 25
  orig: 23, 25
  offset: 0, 0
  index: -1
e5/leg_2_r
  rotate: false
  xy: 635, 49
  size: 23, 25
  orig: 23, 25
  offset: 0, 0
  index: -1
e6/leg_2_r
  rotate: false
  xy: 635, 49
  size: 23, 25
  orig: 23, 25
  offset: 0, 0
  index: -1
p1/leg_2_r
  rotate: false
  xy: 635, 49
  size: 23, 25
  orig: 23, 25
  offset: 0, 0
  index: -1
p2/leg_2_r
  rotate: false
  xy: 635, 49
  size: 23, 25
  orig: 23, 25
  offset: 0, 0
  index: -1
p3/leg_2_r
  rotate: false
  xy: 635, 49
  size: 23, 25
  orig: 23, 25
  offset: 0, 0
  index: -1
p4/leg_2_r
  rotate: false
  xy: 635, 49
  size: 23, 25
  orig: 23, 25
  offset: 0, 0
  index: -1
p5/leg_2_r
  rotate: false
  xy: 635, 49
  size: 23, 25
  orig: 23, 25
  offset: 0, 0
  index: -1
p6/leg_2_r
  rotate: false
  xy: 635, 49
  size: 23, 25
  orig: 23, 25
  offset: 0, 0
  index: -1
e2/belt
  rotate: true
  xy: 637, 340
  size: 34, 18
  orig: 34, 18
  offset: 0, 0
  index: -1
e3/belt
  rotate: true
  xy: 637, 340
  size: 34, 18
  orig: 34, 18
  offset: 0, 0
  index: -1
e4/belt
  rotate: true
  xy: 637, 340
  size: 34, 18
  orig: 34, 18
  offset: 0, 0
  index: -1
e5/belt
  rotate: true
  xy: 637, 340
  size: 34, 18
  orig: 34, 18
  offset: 0, 0
  index: -1
e6/belt
  rotate: true
  xy: 637, 340
  size: 34, 18
  orig: 34, 18
  offset: 0, 0
  index: -1
p2/belt
  rotate: true
  xy: 637, 340
  size: 34, 18
  orig: 34, 18
  offset: 0, 0
  index: -1
p3/belt
  rotate: true
  xy: 637, 340
  size: 34, 18
  orig: 34, 18
  offset: 0, 0
  index: -1
p4/belt
  rotate: true
  xy: 637, 340
  size: 34, 18
  orig: 34, 18
  offset: 0, 0
  index: -1
p5/belt
  rotate: true
  xy: 637, 340
  size: 34, 18
  orig: 34, 18
  offset: 0, 0
  index: -1
p6/belt
  rotate: true
  xy: 637, 340
  size: 34, 18
  orig: 34, 18
  offset: 0, 0
  index: -1
e2/collar
  rotate: true
  xy: 134, 2
  size: 44, 24
  orig: 44, 24
  offset: 0, 0
  index: -1
e3/collar
  rotate: true
  xy: 134, 2
  size: 44, 24
  orig: 44, 24
  offset: 0, 0
  index: -1
e4/collar
  rotate: true
  xy: 134, 2
  size: 44, 24
  orig: 44, 24
  offset: 0, 0
  index: -1
e5/collar
  rotate: true
  xy: 134, 2
  size: 44, 24
  orig: 44, 24
  offset: 0, 0
  index: -1
e6/collar
  rotate: true
  xy: 134, 2
  size: 44, 24
  orig: 44, 24
  offset: 0, 0
  index: -1
p2/collar
  rotate: true
  xy: 134, 2
  size: 44, 24
  orig: 44, 24
  offset: 0, 0
  index: -1
p3/collar
  rotate: true
  xy: 134, 2
  size: 44, 24
  orig: 44, 24
  offset: 0, 0
  index: -1
p4/collar
  rotate: true
  xy: 134, 2
  size: 44, 24
  orig: 44, 24
  offset: 0, 0
  index: -1
p5/collar
  rotate: true
  xy: 134, 2
  size: 44, 24
  orig: 44, 24
  offset: 0, 0
  index: -1
p6/collar
  rotate: true
  xy: 134, 2
  size: 44, 24
  orig: 44, 24
  offset: 0, 0
  index: -1
e2/collar_back
  rotate: true
  xy: 608, 398
  size: 42, 23
  orig: 42, 23
  offset: 0, 0
  index: -1
e3/collar_back
  rotate: true
  xy: 608, 398
  size: 42, 23
  orig: 42, 23
  offset: 0, 0
  index: -1
e4/collar_back
  rotate: true
  xy: 608, 398
  size: 42, 23
  orig: 42, 23
  offset: 0, 0
  index: -1
e5/collar_back
  rotate: true
  xy: 608, 398
  size: 42, 23
  orig: 42, 23
  offset: 0, 0
  index: -1
e6/collar_back
  rotate: true
  xy: 608, 398
  size: 42, 23
  orig: 42, 23
  offset: 0, 0
  index: -1
p2/collar_back
  rotate: true
  xy: 608, 398
  size: 42, 23
  orig: 42, 23
  offset: 0, 0
  index: -1
p3/collar_back
  rotate: true
  xy: 608, 398
  size: 42, 23
  orig: 42, 23
  offset: 0, 0
  index: -1
p4/collar_back
  rotate: true
  xy: 608, 398
  size: 42, 23
  orig: 42, 23
  offset: 0, 0
  index: -1
p5/collar_back
  rotate: true
  xy: 608, 398
  size: 42, 23
  orig: 42, 23
  offset: 0, 0
  index: -1
p6/collar_back
  rotate: true
  xy: 608, 398
  size: 42, 23
  orig: 42, 23
  offset: 0, 0
  index: -1
e2/neck
  rotate: false
  xy: 598, 351
  size: 35, 25
  orig: 35, 26
  offset: 0, 0
  index: -1
e3/neck
  rotate: false
  xy: 598, 351
  size: 35, 25
  orig: 35, 26
  offset: 0, 0
  index: -1
e4/neck
  rotate: false
  xy: 598, 351
  size: 35, 25
  orig: 35, 26
  offset: 0, 0
  index: -1
e5/neck
  rotate: false
  xy: 598, 351
  size: 35, 25
  orig: 35, 26
  offset: 0, 0
  index: -1
e6/neck
  rotate: false
  xy: 598, 351
  size: 35, 25
  orig: 35, 26
  offset: 0, 0
  index: -1
p2/neck
  rotate: false
  xy: 598, 351
  size: 35, 25
  orig: 35, 26
  offset: 0, 0
  index: -1
p3/neck
  rotate: false
  xy: 598, 351
  size: 35, 25
  orig: 35, 26
  offset: 0, 0
  index: -1
p4/neck
  rotate: false
  xy: 598, 351
  size: 35, 25
  orig: 35, 26
  offset: 0, 0
  index: -1
p5/neck
  rotate: false
  xy: 598, 351
  size: 35, 25
  orig: 35, 26
  offset: 0, 0
  index: -1
p6/neck
  rotate: false
  xy: 598, 351
  size: 35, 25
  orig: 35, 26
  offset: 0, 0
  index: -1
e2/shadow_body
  rotate: false
  xy: 334, 88
  size: 21, 12
  orig: 21, 12
  offset: 0, 0
  index: -1
e3/shadow_body
  rotate: false
  xy: 334, 88
  size: 21, 12
  orig: 21, 12
  offset: 0, 0
  index: -1
e4/shadow_body
  rotate: false
  xy: 334, 88
  size: 21, 12
  orig: 21, 12
  offset: 0, 0
  index: -1
e5/shadow_body
  rotate: false
  xy: 334, 88
  size: 21, 12
  orig: 21, 12
  offset: 0, 0
  index: -1
e6/shadow_body
  rotate: false
  xy: 334, 88
  size: 21, 12
  orig: 21, 12
  offset: 0, 0
  index: -1
p2/shadow_body
  rotate: false
  xy: 334, 88
  size: 21, 12
  orig: 21, 12
  offset: 0, 0
  index: -1
p3/shadow_body
  rotate: false
  xy: 334, 88
  size: 21, 12
  orig: 21, 12
  offset: 0, 0
  index: -1
p4/shadow_body
  rotate: false
  xy: 334, 88
  size: 21, 12
  orig: 21, 12
  offset: 0, 0
  index: -1
p5/shadow_body
  rotate: false
  xy: 334, 88
  size: 21, 12
  orig: 21, 12
  offset: 0, 0
  index: -1
p6/shadow_body
  rotate: false
  xy: 334, 88
  size: 21, 12
  orig: 21, 12
  offset: 0, 0
  index: -1
e2/shadow_body_2
  rotate: false
  xy: 452, 15
  size: 23, 18
  orig: 23, 18
  offset: 0, 0
  index: -1
e3/shadow_body_2
  rotate: false
  xy: 452, 15
  size: 23, 18
  orig: 23, 18
  offset: 0, 0
  index: -1
e4/shadow_body_2
  rotate: false
  xy: 452, 15
  size: 23, 18
  orig: 23, 18
  offset: 0, 0
  index: -1
e5/shadow_body_2
  rotate: false
  xy: 452, 15
  size: 23, 18
  orig: 23, 18
  offset: 0, 0
  index: -1
e6/shadow_body_2
  rotate: false
  xy: 452, 15
  size: 23, 18
  orig: 23, 18
  offset: 0, 0
  index: -1
p2/shadow_body_2
  rotate: false
  xy: 452, 15
  size: 23, 18
  orig: 23, 18
  offset: 0, 0
  index: -1
p3/shadow_body_2
  rotate: false
  xy: 452, 15
  size: 23, 18
  orig: 23, 18
  offset: 0, 0
  index: -1
p4/shadow_body_2
  rotate: false
  xy: 452, 15
  size: 23, 18
  orig: 23, 18
  offset: 0, 0
  index: -1
p5/shadow_body_2
  rotate: false
  xy: 452, 15
  size: 23, 18
  orig: 23, 18
  offset: 0, 0
  index: -1
p6/shadow_body_2
  rotate: false
  xy: 452, 15
  size: 23, 18
  orig: 23, 18
  offset: 0, 0
  index: -1
e3/meanteau_front
  rotate: false
  xy: 562, 358
  size: 23, 78
  orig: 23, 78
  offset: 0, 0
  index: -1
e4/meanteau_front
  rotate: false
  xy: 562, 358
  size: 23, 78
  orig: 23, 78
  offset: 0, 0
  index: -1
e5/meanteau_front
  rotate: false
  xy: 562, 358
  size: 23, 78
  orig: 23, 78
  offset: 0, 0
  index: -1
e6/meanteau_front
  rotate: false
  xy: 562, 358
  size: 23, 78
  orig: 23, 78
  offset: 0, 0
  index: -1
p3/meanteau_front
  rotate: false
  xy: 562, 358
  size: 23, 78
  orig: 23, 78
  offset: 0, 0
  index: -1
p4/meanteau_front
  rotate: false
  xy: 562, 358
  size: 23, 78
  orig: 23, 78
  offset: 0, 0
  index: -1
p5/meanteau_front
  rotate: false
  xy: 562, 358
  size: 23, 78
  orig: 23, 78
  offset: 0, 0
  index: -1
p6/meanteau_front
  rotate: false
  xy: 562, 358
  size: 23, 78
  orig: 23, 78
  offset: 0, 0
  index: -1
e3/shadow_body_3
  rotate: false
  xy: 162, 84
  size: 20, 51
  orig: 20, 51
  offset: 0, 0
  index: -1
e4/shadow_body_3
  rotate: false
  xy: 162, 84
  size: 20, 51
  orig: 20, 51
  offset: 0, 0
  index: -1
e5/shadow_body_3
  rotate: false
  xy: 162, 84
  size: 20, 51
  orig: 20, 51
  offset: 0, 0
  index: -1
e6/shadow_body_3
  rotate: false
  xy: 162, 84
  size: 20, 51
  orig: 20, 51
  offset: 0, 0
  index: -1
p3/shadow_body_3
  rotate: false
  xy: 162, 84
  size: 20, 51
  orig: 20, 51
  offset: 0, 0
  index: -1
p4/shadow_body_3
  rotate: false
  xy: 162, 84
  size: 20, 51
  orig: 20, 51
  offset: 0, 0
  index: -1
p5/shadow_body_3
  rotate: false
  xy: 162, 84
  size: 20, 51
  orig: 20, 51
  offset: 0, 0
  index: -1
p6/shadow_body_3
  rotate: false
  xy: 162, 84
  size: 20, 51
  orig: 20, 51
  offset: 0, 0
  index: -1
e3/shoulder_l
  rotate: false
  xy: 655, 454
  size: 20, 23
  orig: 20, 23
  offset: 0, 0
  index: -1
e4/shoulder_l
  rotate: false
  xy: 655, 454
  size: 20, 23
  orig: 20, 23
  offset: 0, 0
  index: -1
e5/shoulder_l
  rotate: false
  xy: 655, 454
  size: 20, 23
  orig: 20, 23
  offset: 0, 0
  index: -1
e6/shoulder_l
  rotate: false
  xy: 655, 454
  size: 20, 23
  orig: 20, 23
  offset: 0, 0
  index: -1
p3/shoulder_l
  rotate: false
  xy: 655, 454
  size: 20, 23
  orig: 20, 23
  offset: 0, 0
  index: -1
p4/shoulder_l
  rotate: false
  xy: 655, 454
  size: 20, 23
  orig: 20, 23
  offset: 0, 0
  index: -1
p5/shoulder_l
  rotate: false
  xy: 655, 454
  size: 20, 23
  orig: 20, 23
  offset: 0, 0
  index: -1
p6/shoulder_l
  rotate: false
  xy: 655, 454
  size: 20, 23
  orig: 20, 23
  offset: 0, 0
  index: -1
e3/shoulder_r
  rotate: false
  xy: 72, 54
  size: 29, 23
  orig: 29, 23
  offset: 0, 0
  index: -1
e4/shoulder_r
  rotate: false
  xy: 72, 54
  size: 29, 23
  orig: 29, 23
  offset: 0, 0
  index: -1
e5/shoulder_r
  rotate: false
  xy: 72, 54
  size: 29, 23
  orig: 29, 23
  offset: 0, 0
  index: -1
e6/shoulder_r
  rotate: false
  xy: 72, 54
  size: 29, 23
  orig: 29, 23
  offset: 0, 0
  index: -1
p3/shoulder_r
  rotate: false
  xy: 72, 54
  size: 29, 23
  orig: 29, 23
  offset: 0, 0
  index: -1
p4/shoulder_r
  rotate: false
  xy: 72, 54
  size: 29, 23
  orig: 29, 23
  offset: 0, 0
  index: -1
p5/shoulder_r
  rotate: false
  xy: 72, 54
  size: 29, 23
  orig: 29, 23
  offset: 0, 0
  index: -1
p6/shoulder_r
  rotate: false
  xy: 72, 54
  size: 29, 23
  orig: 29, 23
  offset: 0, 0
  index: -1
e4/neck_gold
  rotate: false
  xy: 562, 8
  size: 40, 39
  orig: 40, 39
  offset: 0, 0
  index: -1
e5/neck_gold
  rotate: false
  xy: 562, 8
  size: 40, 39
  orig: 40, 39
  offset: 0, 0
  index: -1
e6/neck_gold
  rotate: false
  xy: 562, 8
  size: 40, 39
  orig: 40, 39
  offset: 0, 0
  index: -1
p4/neck_gold
  rotate: false
  xy: 562, 8
  size: 40, 39
  orig: 40, 39
  offset: 0, 0
  index: -1
p5/neck_gold
  rotate: false
  xy: 562, 8
  size: 40, 39
  orig: 40, 39
  offset: 0, 0
  index: -1
p6/neck_gold
  rotate: false
  xy: 562, 8
  size: 40, 39
  orig: 40, 39
  offset: 0, 0
  index: -1
e5/arm_2_l_deco
  rotate: false
  xy: 624, 115
  size: 26, 30
  orig: 26, 30
  offset: 0, 0
  index: -1
e6/arm_2_l_deco
  rotate: false
  xy: 624, 115
  size: 26, 30
  orig: 26, 30
  offset: 0, 0
  index: -1
p5/arm_2_l_deco
  rotate: false
  xy: 624, 115
  size: 26, 30
  orig: 26, 30
  offset: 0, 0
  index: -1
p6/arm_2_l_deco
  rotate: false
  xy: 624, 115
  size: 26, 30
  orig: 26, 30
  offset: 0, 0
  index: -1
e5/arm_2_r_deco
  rotate: true
  xy: 630, 7
  size: 31, 24
  orig: 31, 24
  offset: 0, 0
  index: -1
e6/arm_2_r_deco
  rotate: true
  xy: 630, 7
  size: 31, 24
  orig: 31, 24
  offset: 0, 0
  index: -1
p5/arm_2_r_deco
  rotate: true
  xy: 630, 7
  size: 31, 24
  orig: 31, 24
  offset: 0, 0
  index: -1
p6/arm_2_r_deco
  rotate: true
  xy: 630, 7
  size: 31, 24
  orig: 31, 24
  offset: 0, 0
  index: -1
e5/arrow_deco
  rotate: true
  xy: 635, 76
  size: 37, 21
  orig: 37, 21
  offset: 0, 0
  index: -1
e6/arrow_deco
  rotate: true
  xy: 635, 76
  size: 37, 21
  orig: 37, 21
  offset: 0, 0
  index: -1
p5/arrow_deco
  rotate: true
  xy: 635, 76
  size: 37, 21
  orig: 37, 21
  offset: 0, 0
  index: -1
p6/arrow_deco
  rotate: true
  xy: 635, 76
  size: 37, 21
  orig: 37, 21
  offset: 0, 0
  index: -1
e5/arrow_deco_2
  rotate: false
  xy: 427, 9
  size: 23, 38
  orig: 23, 38
  offset: 0, 0
  index: -1
e6/arrow_deco_2
  rotate: false
  xy: 427, 9
  size: 23, 38
  orig: 23, 38
  offset: 0, 0
  index: -1
p5/arrow_deco_2
  rotate: false
  xy: 427, 9
  size: 23, 38
  orig: 23, 38
  offset: 0, 0
  index: -1
p6/arrow_deco_2
  rotate: false
  xy: 427, 9
  size: 23, 38
  orig: 23, 38
  offset: 0, 0
  index: -1
e5/glow_arrow
  rotate: true
  xy: 518, 124
  size: 58, 49
  orig: 61, 52
  offset: 1, 1
  index: -1
e6/glow_arrow
  rotate: true
  xy: 518, 124
  size: 58, 49
  orig: 61, 52
  offset: 1, 1
  index: -1
p5/glow_arrow
  rotate: true
  xy: 518, 124
  size: 58, 49
  orig: 61, 52
  offset: 1, 1
  index: -1
p6/glow_arrow
  rotate: true
  xy: 518, 124
  size: 58, 49
  orig: 61, 52
  offset: 1, 1
  index: -1
e5/mask
  rotate: true
  xy: 604, 40
  size: 49, 29
  orig: 49, 29
  offset: 0, 0
  index: -1
e6/mask
  rotate: true
  xy: 604, 40
  size: 49, 29
  orig: 49, 29
  offset: 0, 0
  index: -1
e5/shadow_arrow
  rotate: false
  xy: 561, 212
  size: 43, 47
  orig: 43, 47
  offset: 0, 0
  index: -1
e6/shadow_arrow
  rotate: false
  xy: 561, 212
  size: 43, 47
  orig: 43, 47
  offset: 0, 0
  index: -1
p5/shadow_arrow
  rotate: false
  xy: 561, 212
  size: 43, 47
  orig: 43, 47
  offset: 0, 0
  index: -1
p6/shadow_arrow
  rotate: false
  xy: 561, 212
  size: 43, 47
  orig: 43, 47
  offset: 0, 0
  index: -1
e6/hair
  rotate: true
  xy: 513, 261
  size: 71, 56
  orig: 71, 57
  offset: 0, 1
  index: -1
e6/hair_back
  rotate: false
  xy: 635, 376
  size: 20, 32
  orig: 20, 32
  offset: 0, 0
  index: -1
e6/head_deco
  rotate: false
  xy: 375, 73
  size: 83, 80
  orig: 83, 80
  offset: 0, 0
  index: -1
e6/wepon_back
  rotate: false
  xy: 2, 10
  size: 68, 67
  orig: 68, 67
  offset: 0, 0
  index: -1
p6/wepon_back
  rotate: false
  xy: 2, 10
  size: 68, 67
  orig: 68, 67
  offset: 0, 0
  index: -1
ef/1
  rotate: false
  xy: 262, 79
  size: 70, 70
  orig: 94, 94
  offset: 12, 12
  index: -1
ef/2
  rotate: false
  xy: 426, 422
  size: 84, 84
  orig: 94, 94
  offset: 5, 5
  index: -1
ef/3
  rotate: false
  xy: 281, 151
  size: 92, 92
  orig: 94, 94
  offset: 1, 1
  index: -1
ef/4
  rotate: false
  xy: 187, 151
  size: 92, 92
  orig: 94, 94
  offset: 1, 1
  index: -1
ef/5
  rotate: false
  xy: 298, 245
  size: 90, 90
  orig: 94, 94
  offset: 2, 2
  index: -1
ef/6
  rotate: false
  xy: 375, 155
  size: 88, 88
  orig: 94, 94
  offset: 3, 3
  index: -1
ef/7
  rotate: false
  xy: 336, 337
  size: 88, 88
  orig: 94, 94
  offset: 3, 3
  index: -1
ef/8
  rotate: false
  xy: 426, 334
  size: 86, 86
  orig: 94, 94
  offset: 4, 4
  index: -1
ef/9
  rotate: false
  xy: 390, 245
  size: 87, 87
  orig: 94, 94
  offset: 4, 3
  index: -1
ef/POSE_0000_8
  rotate: true
  xy: 465, 204
  size: 39, 10
  orig: 94, 23
  offset: 0, 8
  index: -1
ef/POSE_0001_7
  rotate: false
  xy: 321, 3
  size: 42, 19
  orig: 94, 23
  offset: 0, 3
  index: -1
ef/POSE_0002_6
  rotate: true
  xy: 608, 442
  size: 67, 20
  orig: 94, 23
  offset: 1, 2
  index: -1
ef/POSE_0003_5
  rotate: true
  xy: 594, 142
  size: 68, 21
  orig: 94, 23
  offset: 3, 1
  index: -1
ef/POSE_0004_4
  rotate: true
  xy: 569, 138
  size: 72, 23
  orig: 94, 23
  offset: 4, 0
  index: -1
ef/POSE_0005_3
  rotate: true
  xy: 564, 49
  size: 73, 23
  orig: 94, 23
  offset: 7, 0
  index: -1
ef/POSE_0006_2
  rotate: false
  xy: 383, 49
  size: 74, 22
  orig: 94, 23
  offset: 12, 1
  index: -1
ef/POSE_0007_1
  rotate: false
  xy: 160, 2
  size: 21, 9
  orig: 94, 23
  offset: 73, 1
  index: -1
ef/cross_explotion_0000_1
  rotate: false
  xy: 570, 447
  size: 13, 13
  orig: 37, 49
  offset: 12, 18
  index: -1
ef/cross_explotion_0001_2
  rotate: false
  xy: 604, 2
  size: 24, 36
  orig: 37, 49
  offset: 6, 6
  index: -1
ef/cross_explotion_0002_3
  rotate: false
  xy: 589, 91
  size: 33, 45
  orig: 37, 49
  offset: 2, 2
  index: -1
ef/cross_explotion_0003_4
  rotate: false
  xy: 570, 462
  size: 35, 47
  orig: 37, 49
  offset: 1, 1
  index: -1
ef/cross_explotion_0004_5
  rotate: false
  xy: 334, 102
  size: 35, 47
  orig: 37, 49
  offset: 1, 1
  index: -1
ef/e_00
  rotate: true
  xy: 680, 199
  size: 16, 15
  orig: 21, 22
  offset: 3, 4
  index: -1
ef/e_01
  rotate: true
  xy: 679, 329
  size: 16, 15
  orig: 21, 22
  offset: 3, 4
  index: -1
ef/e_02
  rotate: true
  xy: 677, 64
  size: 16, 15
  orig: 21, 22
  offset: 3, 4
  index: -1
ef/e_03
  rotate: true
  xy: 677, 256
  size: 16, 15
  orig: 21, 22
  offset: 3, 4
  index: -1
ef/e_04
  rotate: false
  xy: 494, 18
  size: 16, 15
  orig: 21, 22
  offset: 3, 4
  index: -1
ef/e_05
  rotate: true
  xy: 677, 457
  size: 16, 15
  orig: 21, 22
  offset: 3, 4
  index: -1
ef/e_06
  rotate: true
  xy: 677, 475
  size: 16, 15
  orig: 21, 22
  offset: 3, 4
  index: -1
ef/e_07
  rotate: true
  xy: 676, 274
  size: 16, 15
  orig: 21, 22
  offset: 3, 4
  index: -1
ef/e_08
  rotate: true
  xy: 675, 82
  size: 16, 15
  orig: 21, 22
  offset: 3, 4
  index: -1
ef/e_09
  rotate: true
  xy: 675, 100
  size: 16, 15
  orig: 21, 22
  offset: 3, 4
  index: -1
ef/e_10
  rotate: true
  xy: 675, 292
  size: 16, 15
  orig: 21, 22
  offset: 3, 4
  index: -1
ef/e_11
  rotate: true
  xy: 675, 310
  size: 16, 15
  orig: 21, 22
  offset: 3, 4
  index: -1
ef/e_12
  rotate: true
  xy: 675, 493
  size: 16, 15
  orig: 21, 22
  offset: 3, 4
  index: -1
ef/e_13
  rotate: true
  xy: 674, 217
  size: 16, 15
  orig: 21, 22
  offset: 3, 4
  index: -1
ef/e_14
  rotate: true
  xy: 674, 235
  size: 16, 15
  orig: 21, 22
  offset: 3, 4
  index: -1
ef/e_15
  rotate: true
  xy: 674, 347
  size: 16, 15
  orig: 21, 22
  offset: 3, 4
  index: -1
ef/e_16
  rotate: true
  xy: 674, 365
  size: 16, 15
  orig: 21, 22
  offset: 3, 4
  index: -1
ef/e_17
  rotate: true
  xy: 674, 383
  size: 16, 15
  orig: 21, 22
  offset: 3, 4
  index: -1
ef/e_18
  rotate: true
  xy: 674, 401
  size: 16, 15
  orig: 21, 22
  offset: 3, 4
  index: -1
ef/e_19
  rotate: false
  xy: 655, 418
  size: 16, 16
  orig: 21, 22
  offset: 3, 4
  index: -1
ef/e_20
  rotate: false
  xy: 655, 436
  size: 16, 16
  orig: 21, 22
  offset: 3, 4
  index: -1
ef/e_21
  rotate: false
  xy: 673, 419
  size: 16, 15
  orig: 21, 22
  offset: 3, 4
  index: -1
ef/e_22
  rotate: true
  xy: 673, 9
  size: 16, 15
  orig: 21, 22
  offset: 3, 4
  index: -1
ef/e_23
  rotate: false
  xy: 652, 117
  size: 16, 16
  orig: 21, 22
  offset: 3, 4
  index: -1
ef/e_24
  rotate: false
  xy: 608, 380
  size: 16, 16
  orig: 21, 22
  offset: 3, 4
  index: -1
ef/e_25
  rotate: true
  xy: 673, 27
  size: 16, 15
  orig: 21, 22
  offset: 3, 4
  index: -1
ef/e_26
  rotate: true
  xy: 673, 45
  size: 16, 15
  orig: 21, 22
  offset: 3, 4
  index: -1
ef/e_27
  rotate: true
  xy: 673, 436
  size: 16, 15
  orig: 21, 22
  offset: 3, 4
  index: -1
ef/e_28
  rotate: true
  xy: 671, 144
  size: 16, 15
  orig: 21, 22
  offset: 3, 4
  index: -1
ef/e_29
  rotate: true
  xy: 671, 162
  size: 16, 15
  orig: 21, 22
  offset: 3, 4
  index: -1
ef/e_30
  rotate: false
  xy: 670, 118
  size: 16, 15
  orig: 21, 22
  offset: 3, 4
  index: -1
ef/e_31
  rotate: true
  xy: 663, 180
  size: 16, 15
  orig: 21, 22
  offset: 3, 4
  index: -1
ef/e_32
  rotate: true
  xy: 663, 198
  size: 16, 15
  orig: 21, 22
  offset: 3, 4
  index: -1
ef/e_33
  rotate: true
  xy: 662, 328
  size: 16, 15
  orig: 21, 22
  offset: 3, 4
  index: -1
ef/e_34
  rotate: false
  xy: 659, 253
  size: 16, 15
  orig: 21, 22
  offset: 3, 4
  index: -1
ef/e_35
  rotate: false
  xy: 365, 2
  size: 16, 15
  orig: 21, 22
  offset: 3, 4
  index: -1
ef/e_36
  rotate: true
  xy: 660, 63
  size: 16, 15
  orig: 21, 22
  offset: 3, 4
  index: -1
ef/e_37
  rotate: true
  xy: 659, 270
  size: 16, 15
  orig: 21, 22
  offset: 3, 4
  index: -1
ef/e_38
  rotate: true
  xy: 658, 81
  size: 16, 15
  orig: 21, 22
  offset: 3, 4
  index: -1
ef/e_39
  rotate: true
  xy: 656, 11
  size: 17, 15
  orig: 21, 22
  offset: 2, 4
  index: -1
ef/e_40
  rotate: true
  xy: 656, 30
  size: 17, 15
  orig: 21, 22
  offset: 2, 4
  index: -1
ef/e_41
  rotate: true
  xy: 658, 99
  size: 16, 15
  orig: 21, 22
  offset: 3, 4
  index: -1
ef/e_42
  rotate: true
  xy: 477, 17
  size: 16, 15
  orig: 21, 22
  offset: 3, 4
  index: -1
ef/e_43
  rotate: true
  xy: 658, 493
  size: 16, 15
  orig: 21, 22
  offset: 3, 4
  index: -1
ef/e_44
  rotate: true
  xy: 657, 216
  size: 16, 15
  orig: 21, 22
  offset: 3, 4
  index: -1
ef/e_45
  rotate: true
  xy: 657, 234
  size: 16, 15
  orig: 21, 22
  offset: 3, 4
  index: -1
ef/e_46
  rotate: true
  xy: 657, 346
  size: 16, 15
  orig: 21, 22
  offset: 3, 4
  index: -1
ef/e_47
  rotate: true
  xy: 657, 364
  size: 16, 15
  orig: 21, 22
  offset: 3, 4
  index: -1
ef/e_48
  rotate: true
  xy: 657, 382
  size: 16, 15
  orig: 21, 22
  offset: 3, 4
  index: -1
ef/e_49
  rotate: true
  xy: 657, 400
  size: 16, 15
  orig: 21, 22
  offset: 3, 4
  index: -1
ef/e_50
  rotate: false
  xy: 460, 137
  size: 16, 16
  orig: 21, 22
  offset: 3, 3
  index: -1
ef/e_51
  rotate: false
  xy: 296, 61
  size: 16, 16
  orig: 21, 22
  offset: 3, 3
  index: -1
ef/fog
  rotate: false
  xy: 2, 79
  size: 100, 56
  orig: 106, 60
  offset: 4, 2
  index: -1
ef/impact_0000_6
  rotate: false
  xy: 650, 288
  size: 23, 23
  orig: 196, 216
  offset: 2, 191
  index: -1
ef/impact_0001_5
  rotate: false
  xy: 479, 124
  size: 32, 208
  orig: 196, 216
  offset: 6, 2
  index: -1
ef/impact_0002_4
  rotate: false
  xy: 2, 311
  size: 183, 198
  orig: 196, 216
  offset: 11, 4
  index: -1
ef/impact_0003_3
  rotate: true
  xy: 2, 137
  size: 172, 183
  orig: 196, 216
  offset: 17, 11
  index: -1
ef/impact_0004_2
  rotate: false
  xy: 187, 355
  size: 147, 154
  orig: 196, 216
  offset: 29, 31
  index: -1
ef/impact_0005_1
  rotate: false
  xy: 187, 245
  size: 109, 108
  orig: 196, 216
  offset: 51, 53
  index: -1
ef/straight_impact_0000_7
  rotate: false
  xy: 210, 4
  size: 24, 7
  orig: 98, 21
  offset: 74, 7
  index: -1
ef/straight_impact_0001_6
  rotate: false
  xy: 183, 4
  size: 25, 7
  orig: 98, 21
  offset: 72, 7
  index: -1
ef/straight_impact_0002_5
  rotate: false
  xy: 298, 344
  size: 29, 9
  orig: 98, 21
  offset: 68, 6
  index: -1
ef/straight_impact_0003_4
  rotate: true
  xy: 642, 205
  size: 45, 13
  orig: 98, 21
  offset: 51, 3
  index: -1
ef/straight_impact_0004_3
  rotate: false
  xy: 514, 336
  size: 82, 20
  orig: 98, 21
  offset: 12, 1
  index: -1
ef/straight_impact_0005_2
  rotate: false
  xy: 357, 90
  size: 14, 10
  orig: 98, 21
  offset: 6, 6
  index: -1
ef/straight_impact_0006_1
  rotate: false
  xy: 296, 51
  size: 11, 8
  orig: 98, 21
  offset: 1, 7
  index: -1
mouth_at
  rotate: false
  xy: 2, 3
  size: 10, 5
  orig: 10, 5
  offset: 0, 0
  index: -1
p1/arm_1_l
  rotate: true
  xy: 622, 280
  size: 30, 26
  orig: 30, 26
  offset: 0, 0
  index: -1
p2/arm_1_l
  rotate: true
  xy: 622, 280
  size: 30, 26
  orig: 30, 26
  offset: 0, 0
  index: -1
p3/arm_1_l
  rotate: true
  xy: 622, 280
  size: 30, 26
  orig: 30, 26
  offset: 0, 0
  index: -1
p4/arm_1_l
  rotate: true
  xy: 622, 280
  size: 30, 26
  orig: 30, 26
  offset: 0, 0
  index: -1
p5/arm_1_l
  rotate: true
  xy: 622, 280
  size: 30, 26
  orig: 30, 26
  offset: 0, 0
  index: -1
p6/arm_1_l
  rotate: true
  xy: 622, 280
  size: 30, 26
  orig: 30, 26
  offset: 0, 0
  index: -1
p1/arm_1_r
  rotate: true
  xy: 644, 170
  size: 33, 17
  orig: 33, 17
  offset: 0, 0
  index: -1
p2/arm_1_r
  rotate: true
  xy: 644, 170
  size: 33, 17
  orig: 33, 17
  offset: 0, 0
  index: -1
p3/arm_1_r
  rotate: true
  xy: 644, 170
  size: 33, 17
  orig: 33, 17
  offset: 0, 0
  index: -1
p4/arm_1_r
  rotate: true
  xy: 644, 170
  size: 33, 17
  orig: 33, 17
  offset: 0, 0
  index: -1
p5/arm_1_r
  rotate: true
  xy: 644, 170
  size: 33, 17
  orig: 33, 17
  offset: 0, 0
  index: -1
p6/arm_1_r
  rotate: true
  xy: 644, 170
  size: 33, 17
  orig: 33, 17
  offset: 0, 0
  index: -1
p1/arrow_back
  rotate: true
  xy: 513, 184
  size: 75, 46
  orig: 75, 47
  offset: 0, 1
  index: -1
p2/arrow_back
  rotate: true
  xy: 513, 184
  size: 75, 46
  orig: 75, 47
  offset: 0, 1
  index: -1
p3/arrow_back
  rotate: true
  xy: 513, 184
  size: 75, 46
  orig: 75, 47
  offset: 0, 1
  index: -1
p4/arrow_back
  rotate: true
  xy: 513, 184
  size: 75, 46
  orig: 75, 47
  offset: 0, 1
  index: -1
p5/arrow_back
  rotate: true
  xy: 513, 184
  size: 75, 46
  orig: 75, 47
  offset: 0, 1
  index: -1
p6/arrow_back
  rotate: true
  xy: 513, 184
  size: 75, 46
  orig: 75, 47
  offset: 0, 1
  index: -1
p1/body
  rotate: false
  xy: 518, 62
  size: 44, 60
  orig: 44, 60
  offset: 0, 0
  index: -1
p2/body
  rotate: false
  xy: 518, 62
  size: 44, 60
  orig: 44, 60
  offset: 0, 0
  index: -1
p3/body
  rotate: false
  xy: 518, 62
  size: 44, 60
  orig: 44, 60
  offset: 0, 0
  index: -1
p4/body
  rotate: false
  xy: 518, 62
  size: 44, 60
  orig: 44, 60
  offset: 0, 0
  index: -1
p5/body
  rotate: false
  xy: 518, 62
  size: 44, 60
  orig: 44, 60
  offset: 0, 0
  index: -1
p6/body
  rotate: false
  xy: 518, 62
  size: 44, 60
  orig: 44, 60
  offset: 0, 0
  index: -1
p1/face
  rotate: false
  xy: 162, 13
  size: 65, 62
  orig: 65, 62
  offset: 0, 0
  index: -1
p2/face
  rotate: false
  xy: 162, 13
  size: 65, 62
  orig: 65, 62
  offset: 0, 0
  index: -1
p3/face
  rotate: false
  xy: 162, 13
  size: 65, 62
  orig: 65, 62
  offset: 0, 0
  index: -1
p4/face
  rotate: false
  xy: 162, 13
  size: 65, 62
  orig: 65, 62
  offset: 0, 0
  index: -1
p5/face
  rotate: false
  xy: 162, 13
  size: 65, 62
  orig: 65, 62
  offset: 0, 0
  index: -1
p6/face
  rotate: false
  xy: 162, 13
  size: 65, 62
  orig: 65, 62
  offset: 0, 0
  index: -1
p1/hair
  rotate: true
  xy: 104, 48
  size: 87, 56
  orig: 88, 57
  offset: 0, 1
  index: -1
p2/hair
  rotate: true
  xy: 104, 48
  size: 87, 56
  orig: 88, 57
  offset: 0, 1
  index: -1
p3/hair
  rotate: true
  xy: 104, 48
  size: 87, 56
  orig: 88, 57
  offset: 0, 1
  index: -1
p4/hair
  rotate: true
  xy: 104, 48
  size: 87, 56
  orig: 88, 57
  offset: 0, 1
  index: -1
p5/hair
  rotate: true
  xy: 104, 48
  size: 87, 56
  orig: 88, 57
  offset: 0, 1
  index: -1
p1/hair_back
  rotate: false
  xy: 612, 312
  size: 23, 37
  orig: 23, 37
  offset: 0, 0
  index: -1
p2/hair_back
  rotate: false
  xy: 612, 312
  size: 23, 37
  orig: 23, 37
  offset: 0, 0
  index: -1
p3/hair_back
  rotate: false
  xy: 612, 312
  size: 23, 37
  orig: 23, 37
  offset: 0, 0
  index: -1
p4/hair_back
  rotate: false
  xy: 612, 312
  size: 23, 37
  orig: 23, 37
  offset: 0, 0
  index: -1
p5/hair_back
  rotate: false
  xy: 612, 312
  size: 23, 37
  orig: 23, 37
  offset: 0, 0
  index: -1
p4/mask
  rotate: false
  xy: 571, 264
  size: 49, 29
  orig: 49, 29
  offset: 0, 0
  index: -1
p5/mask
  rotate: false
  xy: 571, 264
  size: 49, 29
  orig: 49, 29
  offset: 0, 0
  index: -1
p6/mask
  rotate: false
  xy: 571, 264
  size: 49, 29
  orig: 49, 29
  offset: 0, 0
  index: -1
p6/glow
  rotate: false
  xy: 571, 295
  size: 39, 39
  orig: 43, 43
  offset: 2, 2
  index: -1
p6/hair
  rotate: true
  xy: 512, 438
  size: 71, 56
  orig: 71, 57
  offset: 0, 1
  index: -1
p6/hair_back
  rotate: false
  xy: 633, 410
  size: 20, 32
  orig: 20, 32
  offset: 0, 0
  index: -1
p6/head_deco
  rotate: false
  xy: 336, 429
  size: 83, 80
  orig: 83, 80
  offset: 0, 0
  index: -1
p6/manteau
  rotate: 180
  xy: 304, 11
  size: 89, 76
  orig: 89, 76
  offset: 0, 0
  index: -1
shadow
  rotate: true
  xy: 587, 378
  size: 82, 19
  orig: 82, 20
  offset: 0, 1
  index: -1
