FireDe.png
size:512,256
filter:Linear,Linear
scale:0.3
dark/body
bounds:122,17,78,117
dark/eye
bounds:71,36,28,9
offsets:1,1,30,11
dark/face
bounds:275,197,52,56
de1/arm_l
bounds:314,25,43,67
de2/arm_l
bounds:314,25,43,67
de3/arm_l
bounds:314,25,43,67
de1/arm_r
bounds:2,2,43,67
rotate:90
de2/arm_r
bounds:2,2,43,67
rotate:90
de3/arm_r
bounds:2,2,43,67
rotate:90
de1/body
bounds:122,136,78,117
de2/body
bounds:122,136,78,117
de1/face
bounds:260,36,52,56
de2/face
bounds:260,36,52,56
de3/face
bounds:260,36,52,56
de1/shield
bounds:260,94,68,67
rotate:90
de2/shield
bounds:260,94,68,67
rotate:90
de3/shield
bounds:260,94,68,67
rotate:90
de1/wepon
bounds:329,190,63,38
rotate:90
de2/wepon
bounds:329,190,63,38
rotate:90
de3/wepon
bounds:329,190,63,38
rotate:90
de2/shoulder_l
bounds:329,133,55,39
rotate:90
de3/shoulder_l
bounds:329,133,55,39
rotate:90
de2/shoulder_r
bounds:202,2,58,41
rotate:90
de3/shoulder_r
bounds:202,2,58,41
rotate:90
de3/body
bounds:2,47,78,117
rotate:90
de3/helmet
bounds:202,164,89,71
rotate:90
ef
bounds:2,127,118,126
offsets:0,11,118,137
ef/fog
bounds:202,62,100,56
offsets:4,2,106,60
rotate:90
shadow
bounds:245,4,82,19
offsets:0,0,82,20
