FireAt.png
size:512,128
filter:Linear,Linear
scale:0.3
at1/arm_l
bounds:310,12,43,67
rotate:90
at2/arm_l
bounds:310,12,43,67
rotate:90
at3/arm_l
bounds:310,12,43,67
rotate:90
at1/arm_r
bounds:310,57,43,67
at2/arm_r
bounds:310,57,43,67
at3/arm_r
bounds:310,57,43,67
at1/body
bounds:82,7,78,117
at2/body
bounds:82,7,78,117
at3/body
bounds:82,7,78,117
at1/face
bounds:256,10,52,56
at2/face
bounds:256,10,52,56
at3/face
bounds:256,10,52,56
at1/wepon
bounds:220,2,122,34
rotate:90
at2/wepon
bounds:220,2,122,34
rotate:90
at3/wepon
bounds:220,2,122,34
rotate:90
at2/shoulder_l
bounds:419,38,53,31
rotate:90
at3/shoulder_l
bounds:419,38,53,31
rotate:90
at2/shoulder_r
bounds:397,93,53,31
at3/shoulder_r
bounds:397,93,53,31
at3/shoulder_l_2
bounds:379,20,52,38
rotate:90
at3/shoulder_r_2
bounds:355,74,50,40
rotate:90
dark/body
bounds:2,7,78,117
dark/eye
bounds:419,8,28,9
offsets:1,1,30,11
rotate:90
dark/face
bounds:256,68,52,56
ef/fog
bounds:162,24,100,56
offsets:4,2,106,60
rotate:90
ef/straight_impact_0000_7
bounds:439,12,24,7
offsets:74,7,98,21
rotate:90
ef/straight_impact_0001_6
bounds:430,11,25,7
offsets:72,7,98,21
rotate:90
ef/straight_impact_0002_5
bounds:379,9,29,9
offsets:68,6,98,21
ef/straight_impact_0003_4
bounds:162,9,45,13
offsets:51,3,98,21
ef/straight_impact_0004_3
bounds:452,42,82,20
offsets:12,1,98,21
rotate:90
ef/straight_impact_0005_2
bounds:355,58,14,10
offsets:6,6,98,21
rotate:90
ef/straight_impact_0006_1
bounds:310,2,11,8
offsets:1,7,98,21
shadow
bounds:474,42,82,19
offsets:0,0,82,20
rotate:90
