VineSu.png
size:1024,512
filter:Linear,Linear
scale:0.3
dark/eye_dark
bounds:325,295,36,15
offsets:2,2,40,22
rotate:90
dark/face
bounds:565,7,55,61
dark/hair
bounds:676,130,81,78
rotate:90
dark/hair_back
bounds:286,4,38,44
rotate:90
p1/hair_back
bounds:286,4,38,44
rotate:90
p2/hair_back
bounds:286,4,38,44
rotate:90
p3/hair_back
bounds:286,4,38,44
rotate:90
p4/hair_back
bounds:286,4,38,44
rotate:90
p5/hair_back
bounds:286,4,38,44
rotate:90
p6/hair_back
bounds:286,4,38,44
rotate:90
dark/helmetdark
bounds:751,260,53,53
ef/POSE_0000_8
bounds:332,3,39,10
offsets:0,8,94,23
ef/POSE_0001_7
bounds:789,4,42,19
offsets:0,3,94,23
ef/POSE_0002_6
bounds:806,282,67,20
offsets:1,2,94,23
rotate:90
ef/POSE_0003_5
bounds:86,3,68,21
offsets:3,1,94,23
ef/POSE_0004_4
bounds:789,60,72,23
offsets:4,0,94,23
rotate:90
ef/POSE_0005_3
bounds:482,17,73,23
offsets:7,0,94,23
ef/POSE_0006_2
bounds:798,184,74,22
offsets:12,1,94,23
rotate:90
ef/POSE_0007_1
bounds:428,4,21,9
offsets:73,1,94,23
ef/ef_0000_n_5
bounds:734,315,45,69
offsets:125,22,209,180
ef/ef_0001_n_4
bounds:579,285,73,114
offsets:111,17,209,180
ef/ef_0002_n_3
bounds:344,15,136,140
offsets:50,18,209,180
ef/ef_0003_n_2
bounds:325,259,34,14
offsets:44,141,209,180
rotate:90
ef/ef_0004_n_1
bounds:156,13,21,11
offsets:42,145,209,180
ef/fog
bounds:676,28,100,56
offsets:4,2,106,60
rotate:90
ef/glow
bounds:677,224,72,72
offsets:6,6,84,85
ef/impact_0000_6
bounds:841,124,23,23
offsets:2,191,196,216
ef/impact_0001_5
bounds:642,3,32,208
offsets:6,2,196,216
ef/impact_0002_4
bounds:2,312,183,198
offsets:11,4,196,216
ef/impact_0003_3
bounds:2,138,172,183
offsets:17,11,196,216
rotate:90
ef/impact_0004_2
bounds:187,356,147,154
offsets:29,31,196,216
ef/impact_0005_1
bounds:551,401,109,108
offsets:51,53,196,216
rotate:90
ef/impact_2_0000_8
bounds:661,381,129,50
offsets:7,121,182,172
rotate:90
ef/impact_2_0001_7
bounds:565,70,130,75
offsets:7,95,182,172
rotate:90
ef/impact_2_0002_6
bounds:2,26,180,110
offsets:1,59,182,172
ef/impact_2_0003_5
bounds:336,333,177,116
offsets:3,50,182,172
rotate:90
ef/impact_2_0004_4
bounds:344,157,174,117
offsets:4,43,182,172
rotate:90
ef/impact_2_0005_3
bounds:187,188,166,136
offsets:9,19,182,172
rotate:90
ef/impact_2_0006_2
bounds:187,44,155,142
offsets:16,2,182,172
ef/impact_2_0007_1
bounds:463,202,129,114
offsets:32,1,182,172
rotate:90
p1/arm_1_l
bounds:812,437,26,32
p1/arm_1_r
bounds:828,320,22,34
p1/arm_2_l
bounds:834,475,20,35
p2/arm_2_l
bounds:834,475,20,35
p3/arm_2_l
bounds:834,475,20,35
p1/arm_2_l_at
bounds:789,25,35,33
p1/arm_2_r
bounds:840,438,19,35
p2/arm_2_r
bounds:840,438,19,35
p3/arm_2_r
bounds:840,438,19,35
p1/arm_2_r_at
bounds:325,231,16,26
p1/body
bounds:773,349,41,80
rotate:180
p1/body_bottom
bounds:822,213,33,23
rotate:90
p2/body_bottom
bounds:822,213,33,23
rotate:90
p3/body_bottom
bounds:822,213,33,23
rotate:90
p4/body_bottom
bounds:822,213,33,23
rotate:90
p5/body_bottom
bounds:822,213,33,23
rotate:90
p6/body_bottom
bounds:822,213,33,23
rotate:90
p1/face
bounds:713,386,55,61
p2/face
bounds:713,386,55,61
p3/face
bounds:713,386,55,61
p4/face
bounds:713,386,55,61
p1/foot_l
bounds:482,3,19,12
p2/foot_l
bounds:482,3,19,12
p3/foot_l
bounds:482,3,19,12
p4/foot_l
bounds:482,3,19,12
p5/foot_l
bounds:482,3,19,12
p6/foot_l
bounds:482,3,19,12
p1/foot_r
bounds:408,2,18,11
p2/foot_r
bounds:408,2,18,11
p3/foot_r
bounds:408,2,18,11
p4/foot_r
bounds:408,2,18,11
p5/foot_r
bounds:408,2,18,11
p6/foot_r
bounds:408,2,18,11
p1/hair
bounds:654,298,81,78
rotate:90
p2/hair
bounds:654,298,81,78
rotate:90
p3/hair
bounds:654,298,81,78
rotate:90
p4/hair
bounds:654,298,81,78
rotate:90
p5/hair
bounds:654,298,81,78
rotate:90
p6/hair
bounds:654,298,81,78
rotate:90
p1/leg_1_R
bounds:551,365,25,34
p2/leg_1_R
bounds:551,365,25,34
p3/leg_1_R
bounds:551,365,25,34
p4/leg_1_R
bounds:551,365,25,34
p5/leg_1_R
bounds:551,365,25,34
p6/leg_1_R
bounds:551,365,25,34
p1/leg_1_l
bounds:816,402,24,33
p2/leg_1_l
bounds:816,402,24,33
p3/leg_1_l
bounds:816,402,24,33
p4/leg_1_l
bounds:816,402,24,33
p5/leg_1_l
bounds:816,402,24,33
p6/leg_1_l
bounds:816,402,24,33
p1/leg_2_l
bounds:842,412,21,24
p2/leg_2_l
bounds:842,412,21,24
p3/leg_2_l
bounds:842,412,21,24
p4/leg_2_l
bounds:842,412,21,24
p5/leg_2_l
bounds:842,412,21,24
p6/leg_2_l
bounds:842,412,21,24
p1/leg_2_r
bounds:841,98,21,24
p2/leg_2_r
bounds:841,98,21,24
p3/leg_2_r
bounds:841,98,21,24
p4/leg_2_r
bounds:841,98,21,24
p5/leg_2_r
bounds:841,98,21,24
p6/leg_2_r
bounds:841,98,21,24
p2/arm_1_l
bounds:808,150,26,32
p3/arm_1_l
bounds:808,150,26,32
p4/arm_1_l
bounds:808,150,26,32
p5/arm_1_l
bounds:808,150,26,32
p6/arm_1_l
bounds:808,150,26,32
p2/arm_1_r
bounds:826,46,22,34
p3/arm_1_r
bounds:826,46,22,34
p4/arm_1_r
bounds:826,46,22,34
p5/arm_1_r
bounds:826,46,22,34
p6/arm_1_r
bounds:826,46,22,34
p2/belt
bounds:373,2,33,11
p2/body
bounds:770,430,41,80
p2/shoulder_l
bounds:781,321,22,27
p3/shoulder_l
bounds:781,321,22,27
p4/shoulder_l
bounds:781,321,22,27
p5/shoulder_l
bounds:781,321,22,27
p6/shoulder_l
bounds:781,321,22,27
p2/shoulder_r
bounds:805,471,27,31
p3/shoulder_r
bounds:805,471,27,31
p4/shoulder_r
bounds:805,471,27,31
p5/shoulder_r
bounds:805,471,27,31
p6/shoulder_r
bounds:805,471,27,31
p3/body
bounds:756,178,41,80
p3/body_deco
bounds:236,4,38,48
rotate:90
p4/body_deco
bounds:236,4,38,48
rotate:90
p5/body_deco
bounds:236,4,38,48
rotate:90
p6/body_deco
bounds:236,4,38,48
rotate:90
p3/wepon
bounds:756,134,50,43
p4/wepon
bounds:756,134,50,43
p5/wepon
bounds:756,134,50,43
p6/wepon
bounds:756,134,50,43
p3/wepon_back
bounds:734,63,65,45
rotate:90
p4/wepon_back
bounds:734,63,65,45
rotate:90
p5/wepon_back
bounds:734,63,65,45
rotate:90
p6/wepon_back
bounds:734,63,65,45
rotate:90
p4/arm_2_l
bounds:833,9,20,35
p5/arm_2_l
bounds:833,9,20,35
p6/arm_2_l
bounds:833,9,20,35
p4/arm_2_l_armor
bounds:815,356,25,32
p4/arm_2_r
bounds:836,176,19,35
p5/arm_2_r
bounds:836,176,19,35
p6/arm_2_r
bounds:836,176,19,35
p4/arm_2_r_armor
bounds:822,248,24,32
p4/glow
bounds:184,3,50,39
offsets:4,3,58,45
p4/shoulder_l_deco
bounds:828,291,27,27
p5/shoulder_l_deco
bounds:828,291,27,27
p6/shoulder_l_deco
bounds:828,291,27,27
p4/shoulder_r_deco
bounds:814,82,32,25
rotate:90
p5/shoulder_r_deco
bounds:814,82,32,25
rotate:90
p6/shoulder_r_deco
bounds:814,82,32,25
rotate:90
p4/wepon_glow
bounds:579,213,96,70
offsets:8,6,113,82
p5/wepon_glow
bounds:579,213,96,70
offsets:8,6,113,82
p6/wepon_glow
bounds:579,213,96,70
offsets:8,6,113,82
p5/arm_2_l_armor
bounds:814,116,25,32
p6/arm_2_l_armor
bounds:814,116,25,32
p5/arm_2_l_armor_deco
bounds:841,149,25,24
offsets:0,0,25,25
rotate:90
p6/arm_2_l_armor_deco
bounds:841,149,25,24
offsets:0,0,25,25
rotate:90
p5/arm_2_r_armor
bounds:676,2,24,32
rotate:90
p6/arm_2_r_armor
bounds:676,2,24,32
rotate:90
p5/arm_2_r_armor_deco
bounds:551,338,25,25
offsets:0,0,25,26
p6/arm_2_r_armor_deco
bounds:551,338,25,25
offsets:0,0,25,26
p5/face
bounds:713,449,55,61
p6/face
bounds:713,449,55,61
p5/helmet
bounds:734,8,53,53
p6/helmet
bounds:734,8,53,53
p6/back_wepon
bounds:482,42,158,81
rotate:90
p6/back_wepon_glow
bounds:463,333,177,86
offsets:3,18,180,106
rotate:90
shadow
bounds:2,5,82,19
offsets:0,0,82,20
